astral_terror = {
	potential = {
		tag = I03
		has_country_flag = vazhatun_astronomy_unlocked
	}
	
	can_start = {
		always = yes
	}
	
	can_stop = {
		always = no
	}
	
	progress = {
		modifier = {
			factor = 0.17
			has_country_modifier = vazhatun_astronomy_enabled
		}
		modifier = {
			factor = 1
			has_country_modifier = vazhatun_glowing_terror
		}
		modifier = {
			factor = -0.17
			NOT = { has_country_modifier = vazhatun_astronomy_enabled }
		}
		modifier = {
			factor = -0.02
			has_estate_privilege = estate_church_vazhatun_mental_care
		}
		modifier = {
			factor = -0.02
			has_estate_privilege = estate_church_vazhatun_mental_care
			has_disaster_progress = {
				disaster = astral_terror
				value = 25
			}
		}
		modifier = {
			factor = -0.02
			has_estate_privilege = estate_church_vazhatun_mental_care
			has_disaster_progress = {
				disaster = astral_terror
				value = 50
			}
		}
		modifier = {
			factor = -0.02
			has_estate_privilege = estate_church_vazhatun_mental_care
			has_disaster_progress = {
				disaster = astral_terror
				value = 75
			}
		}
		modifier = {
			factor = -0.08
			has_country_modifier = vazhatun_astral_cautiousness
		}
	}
	
	can_end = {
		stability = 0
		custom_trigger_tooltip = {
			tooltip = vazhatun_terror_points_tt
			NOT = {
				check_variable = {
					which = vazhatun_terror_points
					value = 1
				}
			}
		}
		NOT = { has_spawned_rebels = vazhatun_rebels }
		NOT = { any_owned_province = { has_rebel_faction = vazhatun_rebels } }
	}
	
	modifier = {
		global_unrest = 10
		stability_cost_modifier = 1
		all_estate_loyalty_equilibrium = -0.1
	}
	
	on_start = flavor_vazhatun.101
	on_end = flavor_vazhatun.102
	
	on_monthly = {
		events = {}
		random_events = {
			710 = 0
			
			50 = flavor_vazhatun.103
			50 = flavor_vazhatun.104
			40 = flavor_vazhatun.105
			30 = flavor_vazhatun.106
			
			40 = flavor_vazhatun.107
			40 = flavor_vazhatun.108
			
			20 = flavor_vazhatun.109
			20 = flavor_vazhatun.110
			
			10 = flavor_vazhatun.112
			
		}
	}
}