##BranchStart 0
veykoda_vareynn_branch = {
	slot = 1
	generic = no
	ai = yes
	potential = {
		OR = {
            tag = G35
            AND = {
                tag = U69
                was_tag = G35
            }
            AND = {
                tag = H27
                was_tag = G35
            }
        }
		NOT = { map_setup = map_setup_random }
	}
	has_country_shield = yes

	##Mission Start
	pomentere_estates = {
		icon = mission_secure_khandesh
		required_missions = {
			veykodan_rune_warriors
		}
		position = 2
		provinces_to_highlight = {
			OR = {
				province_id = 1141
				province_id = 2810
			}
			NOT = {
				country_or_non_sovereign_subject_holds = ROOT
			}
		}
		trigger = {
			check_variable = {
					which = G35WarsWon
					value = 3
				}
			1141 = {
				owned_by = ROOT
			}
			2810 = {
				owned_by = ROOT
			}
		}
		effect = {
			set_country_flag = has_pomentere_estates
			custom_tooltip = ynn_pomentere_estates_info_tt
			if = {
				limit = {
					ai = yes
				}
				add_accepted_culture = veykodan
			}
			1141 = {
				change_culture = veykodan
				add_province_modifier = {
					name = ynn_pomentere_estates
					duration = -1
				}
			}
			2810 = {
				change_culture = veykodan
				add_province_modifier = {
					name = ynn_pomentere_estates
					duration = -1
				}
			}
			add_country_modifier = {
				name = G35_veykodan_rune_warriors
				duration = 3650 #10 Years
			}
		}
	}
	##Mission End
	##Mission Start
	buycev_policy = {
		icon = mission_unite_the_deccan
		required_missions = {
			pomentere_estates
		}
		position = 3
		trigger = {
			num_of_cities = 5
			num_of_owned_provinces_with = {	#2 provinces to hand out to Pomentere
				value = 2
				NOT = {
					province_id = 1139
					province_id = 1140
					has_province_modifier = ynn_pomentere_estates
				}
			}
			num_of_subjects = 5
			any_hired_mercenary_company = {
				template = veykodan_guard_merc
				hired_for_months = 60
			}
		}
		effect = {
			if = {
				limit = { 
					any_owned_province = {	#Says every owned province will be awarded to Veykodans
						NOT = {
							province_id = 1139
							province_id = 1140
							has_province_modifier = ynn_pomentere_estates
						}
					} 
				}
				every_owned_province = {
					limit = {
						NOT = {
							province_id = 1139 #They don't settle as Pomentere in Arverynn
							province_id = 1140 #Thromshana isn't new conquest
						}
					}
					change_culture = veykodan
					add_province_modifier = {
						name = ynn_pomentere_estates
						duration = -1
					}
				}
			}
			country_event = { id = flavor_arverynn.1 } #Path of the Veykoda
			hidden_effect = {
				U24 = {
					country_event = { id = flavor_arvezl.3 days = 60 }
				}
				country_event = { id = flavor_arverynn.14 days = 60 }
			}
			#set_country_flag = G35_buycev_flag #Unlocks additional mercenary companies #TODO
		}
	}
	##Mission End
	##Mission Start
	veykodan_guard = {
		icon = mission_rb_unite_the_clans
		required_missions = {
			buycev_policy
		}
		position = 4
		provinces_to_highlight = {
			owned_by = ROOT
			OR = {
				AND = {
					province_id = 1139
					NOT = { has_manpower_building_trigger = yes }
				}
				AND = {
					culture = veykodan
					NOT = { base_manpower = 3 }
				}
			}
		}
		trigger = {
			mil_power = 100
			1139 = {
				has_manpower_building_trigger = yes
			}
			num_of_owned_provinces_with = {
				value = 4
				owned_by = ROOT
				is_core = ROOT
				culture = veykodan
				base_manpower = 3
			}
		}
		effect = {
			add_mil_power = -100
			random_hired_mercenary_company = {
				limit = {
					template = veykodan_guard_merc
				}
				add_company_manpower = 1
			}
			add_country_modifier = {
				name = G35_veykodan_rune_armour
				duration = -1
			}
			custom_tooltip = veykodan_rune_armour_tt 
		}
	}
	##Mission End
	##Mission Start
	thromshana_rangers = {
		icon = mission_non-western_cavalry_raid
		required_missions = {
			veykodan_guard
		}
		position = 5
		provinces_to_highlight = {
			province_id = 1140
			NOT = {
				AND = {
					has_manpower_building_trigger = yes
					has_manufactory_trigger = yes
				}
			}
		}
		trigger = {
			1140 = { #thromshana
				has_manpower_building_trigger = yes
				has_manufactory_trigger = yes
			}
			custom_trigger_tooltip = {
				tooltip = tromsolec_way_rebuilt_tt
				owns_core_province = 2781
			}
			mil_tech = 9
		}
		effect = {
			1140 = { #thromshana
				add_province_modifier = {
					name = G35_tromseloc_way
					duration = -1
				}
			}
			2781 = { #Tromseloc
				add_province_modifier = {
					name = G35_tromseloc_way
					duration = -1
				}
			}
			add_country_modifier = {
				name = G35_thromshana_rangers
				duration = 7300 #20 Years
			}
		}
	}
	##Mission End
	##Mission Start
	along_the_tromseloc_way = {
		icon = mission_misty_forest
		required_missions = {
			thromshana_rangers
		}
		position = 6
		provinces_to_highlight = {
			area = bosancovac_area
			NOT = {
				country_or_non_sovereign_subject_holds = ROOT
			}
		}
		trigger = {
			bosancovac_area = {
				type = all
				country_or_non_sovereign_subject_holds = ROOT
			}
		}
		effect = {
			if = {
				limit = {
					1165 = {
						NOT = {
							owned_by = ROOT
						}
					}
				}
				1165 = {
				cede_province = ROOT
				}
			}
			else = {
				add_prestige = 15
			}
		}
	}
	##Mission End
	##Mission Start
	the_blood_of_lukaus = {
		icon = mission_early_game_buildings
		required_missions = {
			along_the_tromseloc_way
		}
		position = 7
		provinces_to_highlight = {
			OR = {
				area = trojvare_area
				area = brelar_area
			}
			NOT = {
				country_or_non_sovereign_subject_holds = ROOT
			}
		}
		trigger = {
			trojvare_area = {
				type = all
				country_or_non_sovereign_subject_holds = ROOT
			}
			brelar_area = {
				type = all
				country_or_non_sovereign_subject_holds = ROOT
			}
		}
		effect = {
			if = {
				limit = { 
					has_dlc = "El Dorado"
					primitives = yes
				}
				add_authority = 10
			}
			else = {
				add_legitimacy = 10
				add_devotion = 10
				add_republican_tradition = 5
			}
			if = {
				limit = {
					1171 = {
						NOT = {
							owned_by = ROOT
						}
					}
				}
				1171 = {
				cede_province = ROOT
				}
			}
			else = {
				add_prestige = 15
			}
		}
	}
	##Mission End
	##Mission Start
	bulwark_of_the_east = {
		icon = mission_magnificent_castle
		required_missions = {
			the_blood_of_lukaus
		}
		position = 8
		provinces_to_highlight = {
			OR = {
				AND = {
					province_id = 2742
					NOT = { has_fort_building_trigger = yes }
				}
				AND = {
					province_id = 1172
					NOT = { has_fort_building_trigger = yes }
				}
				AND = {
					OR = {
						area = amacimst_area
						owned_by = G26
					}
					NOT = { country_or_non_sovereign_subject_holds = ROOT }
				}
			}
		}
		trigger = {
			G26 = {
				OR = {
					is_subject_of = ROOT
					exists = no
				}
			}
			amacimst_area = {
				type = all
				country_or_non_sovereign_subject_holds = ROOT
			}
			1172 = {
				has_fort_building_trigger = yes
			}
			2742 = {
				has_fort_building_trigger = yes
			}
		}
		effect = {
			1172 = {
				add_permanent_province_modifier = {
					name = G35_bulwarks_of_the_east
					duration = -1
				}
			}
			2742 = {
				add_permanent_province_modifier = {
					name = G35_bulwarks_of_the_east
					duration = -1
				}
				change_province_name = "Vyrhrada"
			}
		}
	}
	##Mission End
	##

}
##BranchEnd 0
##BranchStart 1
conquest_sarda_middle = {
	slot = 2
	generic = no
	ai = yes
	potential = {
		 OR = {
            tag = G35
            AND = {
                tag = U69
                was_tag = G35
            }
            AND = {
                tag = H27
                was_tag = G35
            }
        }
		NOT = { map_setup = map_setup_random }
	}
	has_country_shield = yes

	##Mission Start
	veykodan_rune_warriors = {
		icon = mission_mayan_conquest
		required_missions = {

		}
		position = 1
		trigger = {
			mil_power = 50
			treasury = 50
		}
		effect = {
			add_mil_power = -50
			add_treasury = -50
			set_country_flag = G35_veykodan_mercs_available_flag
			custom_tooltip = G35_veykodan_guard_get_tt
			if = {
				limit = { ai = no }
				add_country_modifier = {
					name = G35_veykodan_rune_warriors
					duration = 1825 #5 Years
				}
			}
			else = {
				add_country_modifier = {
					name = G35_veykodan_rune_warriors
					duration = 5475 #15 Years, AI aid
				}
			}
			add_country_modifier = {
				name = G35_veykodans_flock_to_teal_banners
				duration = 365 #1 Year
			}
			custom_tooltip = G35_dont_lose_veykodans_tt
		}
	}
	##Mission End
	##Mission Start
	seize_the_imperial_palace = {
		icon = mission_sovereign_principality
		required_missions = {
			defeat_the_rebellion
		}
		position = 3
		provinces_to_highlight = {
			OR = {
				owned_by = G86
				area = hradapolere_area
			}
			NOT = {
				country_or_non_sovereign_subject_holds = ROOT
			}
		}
		trigger = {
			hradapolere_area = {
				type = all
				country_or_non_sovereign_subject_holds = ROOT
			}
			OR = {
				G86 = {
					is_subject_of = ROOT
				}
				G86 = {
					exists = no
				}
			}
			if = {
				limit = { 
					has_dlc = "El Dorado"
					primitives = yes
				}
				authority = 10
			}
			else = {
				legitimacy_equivalent = 10
			}
		}
		effect = {
			add_country_modifier = {
				name = G35_arverynn_resurgent
				duration = 3650 #10 Years
			}
			if = {
				limit = { G86 = { exists = yes } }
				G86 = {
					if = {
						limit = {
							has_ruler = "Tranvit III"
						}
						set_heir = hrenvyr_yen_stantir
						set_heir_flag = G35_stanyrhrada_ward_flag
					}
					else = {
						hidden_effect = {
							set_heir = hrenvyr_yen_stantir
							set_heir_flag = G35_stanyrhrada_ward_flag
							kill_ruler = yes
						}
						country_event = { id = flavor_arverynn.52 }
					}
				}
				if = {
					limit = { 
						has_dlc = "El Dorado"
						primitives = yes
					}
					add_authority = -10
				}
				else = {
					add_legitimacy = -10
					add_devotion = -10
					add_republican_tradition = -10
				}
				custom_tooltip = G35_stanyrhrada_ward_tt
			}
			
		}
	}
	##Mission End
	##Mission Start
	guard_the_veykodan_approach = {
		icon = mission_conquer_50_development
		required_missions = {
			seize_the_imperial_palace
		}
		position = 4
		provinces_to_highlight = {
			OR = {
				AND = {
					OR = {
						province_id = 1139
						province_id = 2858
						province_id = 1148
					}
					NOT = {
						has_fort_building_trigger = yes
					}
				}
				AND = {
					OR = {
						province_id = 1139
						province_id = 2858
					}
					NOT = {
						has_manpower_building_trigger = yes
					}
				}
				AND = {
					province_id = 1139
					NOT = { owned_by = ROOT }
				}
				AND = {
					OR = {
						province_id = 2858
						province_id = 1148
						owned_by = G37
						owned_by = U24
					}
					NOT = { country_or_subject_holds = ROOT }
				}
			}
		}
		trigger = {
			G37 = {
				OR = {
					is_subject_of = ROOT
					NOT = {
						exists = yes
					}
				}
			}
			U24 = {
				OR = {
					is_subject_of = ROOT
					NOT = {
						exists = yes
					}
				}
			}
			1139 = {
				has_fort_building_trigger = yes
				has_manpower_building_trigger = yes
				owned_by = ROOT
			}
			2858 = {
				has_fort_building_trigger = yes
				has_manpower_building_trigger = yes
				country_or_non_sovereign_subject_holds = ROOT
			}
			1148 = {
				has_fort_building_trigger = yes
				country_or_non_sovereign_subject_holds = ROOT
			}
		}
		effect = {
			add_country_modifier = {
				name = G35_stable_veykoda_frontier
				duration = 7300 #20 Years
			}
		}
	}
	##Mission End
	##Mission Start
	unity_of_the_sarda = {
		icon = secure_our_rule
		required_missions = {
			veykodan_guard guard_the_veykodan_approach rightful_rulers_of_sarda
		}
		position = 5
		provinces_to_highlight = {
			region = sarda_region
			culture = sarda
			NOT = {
				country_or_non_sovereign_subject_holds = ROOT
			}
		}
		trigger = {
			yrw_has_settled_second_debate = yes
			sarda_region = {
				type = all
				OR = {
					AND = {
						culture = sarda
						country_or_non_sovereign_subject_holds = ROOT
					}
					is_city = no
					NOT = {
						culture = sarda
					}
				}
			}
		}
		effect = {
			custom_tooltip = yrw2_different_rewards
			if = {
				limit = {
					yrw_has_settled_second_debate_blame_emperors = yes
				}
				custom_tooltip = G35_unity_of_sarda_reward_tt
				hidden_effect = {
					every_known_country = {
						limit = {
							primary_culture = sarda
							is_subject_of = ROOT
						}
						add_country_modifier = {
							name = G35_sarda_loyalty
							duration = -1
						}
					}
				}
				if = {
					limit = { dynasty = "Vyrekynn" }
					add_country_modifier = {
						name = G35_the_redemption_of_house_vyrekynn
						duration = -1
					}
				}
			}
			else_if = {
				limit = {
					yrw_has_settled_second_debate_blame_subjects = yes
				}
				set_government_rank = 3
				if = {
					limit = { dynasty = "Vyrekynn" }
					add_country_modifier = {
						name = G35_the_miracle_of_house_vyrekynn
						duration = -1
					}
				}
			}
			remove_country_modifier = G35_blunder_of_calrodiy_iv
		}
	}
	##Mission End
	##Mission Start
	march_on_mocvamsto = {
		icon = mission_great_wall
		required_missions = {
			unity_of_the_sarda
		}
		position = 6
		provinces_to_highlight = {
			OR = {
				area = arganjuzorn_area
				area = mocvare_area
			}
			NOT = {
				country_or_non_sovereign_subject_holds = ROOT
			}
		}
		trigger = {
			mocvare_area = {
				type = all
				country_or_non_sovereign_subject_holds = ROOT
			}
			arganjuzorn_area = {
				type = all
				country_or_non_sovereign_subject_holds = ROOT
			}
		}
		effect = {
			if = {
				limit = {
					1186 = {
						NOT = {
							owned_by = ROOT
						}
					}
				}
				1186 = {
				cede_province = ROOT
				}
			}
			else = {
				add_prestige = 15
			}
		}
	}
	##Mission End
	##Mission Start
	vanquich_the_battlekings = {
		icon = gory_to_the_black_army
		required_missions = {
			march_on_mocvamsto
		}
		position = 7
		provinces_to_highlight = {
			OR = {
				area = malacnar_area
				area = drevkenuc_area
				area = uslad_area
				owned_by = G32
			}
			NOT = {
				country_or_non_sovereign_subject_holds = ROOT
			}
		}
		trigger = {
			G32 = {
				OR = {
					is_subject_of = ROOT
					exists = no
				}
			}
			uslad_area = {
				type = all
				country_or_non_sovereign_subject_holds = ROOT
			}
			drevkenuc_area = {
				type = all
				country_or_non_sovereign_subject_holds = ROOT
			}
			malacnar_area = {
				type = all
				country_or_non_sovereign_subject_holds = ROOT
			}
		}
		effect = {
			add_prestige = 25
			add_country_modifier = {
				name = G35_vanquished_battlekings
				duration = 7300 #20 Years
			}
		}
	}
	##Mission End
	##Mission Start
	knights_of_the_bush = {
		icon = mission_marathi_fiefs
		required_missions = {
			vanquich_the_battlekings
		}
		position = 8
		provinces_to_highlight = {
			OR = {
				area = grebniesth_area
				owned_by = G28
			}
			NOT = {
				country_or_non_sovereign_subject_holds = ROOT
			}
		}
		trigger = {
			G28 = {
				OR = {
					is_subject_of = ROOT
					exists = no
				}
			}
			grebniesth_area = {
				type = all
				country_or_non_sovereign_subject_holds = ROOT
			}
		}
		effect = {
			add_country_modifier = {
				name = G35_knights_of_the_bush
				duration = 7300 #20 Years
			}
		}
	}
	##Mission End
	##Mission Start
	surge_beyond_the_dark_ages = {
		icon = mission_expand_inland
		required_missions = {
			bulwark_of_the_east knights_of_the_bush towards_the_high_city
		}
		position = 9
		provinces_to_highlight = {
			superregion = ynn_superregion
			OR = {
				culture = rzentur
				culture = dolindhan
				culture = sarda
			}
			NOT = {
				country_or_non_sovereign_subject_holds = ROOT
			}
		}
		trigger = {
			custom_trigger_tooltip = {
				tooltip = surge_beyond_the_dark_ages_tt
				ynn_superregion = {
					type = all
					OR = {
						NOT = {
							culture = rzentur
							culture = dolindhan
							culture = sarda
						}
						country_or_non_sovereign_subject_holds = ROOT
					}
				}
			}
			stability = 2
			legitimacy = 90
			yrw_has_been_reformed = yes
		}
		effect = {
			if = {
				limit = {
					has_country_modifier = G35_broken_promises
				}
			remove_country_modifier = G35_broken_promises
			}
			add_country_modifier = {
				name = G35_surge_beyond_dark_ages
				duration = 18250 #50 Years
			}
		}
	}
	##Mission End
	##

}
##BranchEnd 1
##BranchStart 2
rightful_rulers_branch = {
	slot = 3
	generic = no
	ai = yes
	potential = {
		 OR = {
            tag = G35
            AND = {
                tag = U69
                was_tag = G35
            }
            AND = {
                tag = H27
                was_tag = G35
            }
        }
		NOT = { map_setup = map_setup_random }
	}
	has_country_shield = yes

	##Mission Start
	a_true_vyrekynn = {
		icon = mission_russian_patriarchatee
		required_missions = {

		}
		position = 1
		trigger = {
			NOT = {
				has_ruler = "Calrodiy IV"
			}
		}
		effect = {
			add_legitimacy = 10
		}
	}
	##Mission End
	##Mission Start
	defeat_the_rebellion = {
		icon = mission_subdue_rajputana
		required_missions = {
			veykodan_rune_warriors a_true_vyrekynn resolve_our_debts
		}
		position = 2
		provinces_to_highlight = {
			OR = {
				province_id = 2810
				province_id = 1148
			}
			NOT = {
				country_or_non_sovereign_subject_holds = ROOT
			}
		}
		trigger = {
			2810 = {
				owned_by = ROOT
			}
			1148 = {
				country_or_subject_holds = ROOT
			}
			U24 = {
				OR = {
					exists = no
					is_subject_of = ROOT
				}
			}
			G36 = {
				OR = {
					NOT = {
						has_ruler = "Alaran I"
					}
					exists = no
				}
			}
		}
		effect = {
			add_prestige = 15
			add_mil_power = 50
			remove_country_modifier = G35_taxed_arverynn_citizens
			
			if = {
				limit = {
					NOT = { exists = U24 }
				}
				release = U24
				create_subject = {
					subject_type = ynnic_iosahar
					subject = U24
				}
				hidden_effect = {
					U24 = {
						change_government = monarchy
						add_government_reform = feudalism_reform
						change_religion = ROOT
						define_ruler = {
							dynasty = original_dynasty
							religion = ROOT
						}
					}
				}
				ROOT = { add_historical_friend = U24 }
				U24 = {
					add_historical_friend = ROOT
					remove_historical_friend = G36
				}
			}
			else_if = {
				limit = {
					U24 = {
						exists = yes
						is_subject_of = ROOT
					}
					NOT = {
						1148 = {
							owned_by = U24
						}
					}
				}
				1148 = {
					cede_province = U24
					add_core = U24
				}
				ROOT = { 
					add_historical_friend = U24 
				}
				U24 = {
					add_historical_friend = ROOT
					set_capital = 1148
					remove_historical_friend = G36
				}
			}
		}
	}
	##Mission End
	##Mission Start
	teach_them_a_lesson = {
		icon = mission_expand_inland
		required_missions = {
			defeat_the_rebellion
		}
		position = 3
		provinces_to_highlight = {
			OR = {
				province_id = 2859
				owned_by = G36
			}
			NOT = {
				country_or_non_sovereign_subject_holds = ROOT
			}
		}
		trigger = {
			G36 = {
				OR = {
					exists = no
					is_subject_of = ROOT
				}
			}
			2859 = {
				OR = {
					owned_by = ROOT
					owned_by = G36
				}
			}
		}
		effect = {
				if = {
					limit = {
						2816 = {
							owned_by = G36
						}
					}
					custom_tooltip = trompolere_divide_lands_2816_tt
					hidden_effect = { #Lesthrom
						2816 = {
							cede_province = ROOT
						}
					}
				}
				if = {
					limit = {
						1137 = {
							owned_by = G36
						}
					}
					custom_tooltip = trompolere_divide_lands_1137_tt
					hidden_effect = { #Vels Amsto
						1137 = {
							cede_province = G86
						}
						G86 = {
							add_opinion = {
								who = ROOT
								modifier = returned_province
							}
						}
						add_liberty_desire = -5
					}
				}
				if = {
					limit = {
						2859 = {
							owned_by = G36
						}
					}
					custom_tooltip = trompolere_divide_lands_2859_tt
					hidden_effect = { #Trompolere
						2859 = {
							cede_province = G86
						}
						G86 = {
							add_opinion = {
								who = ROOT
								modifier = returned_province
							}
							add_liberty_desire = -5
						}
					}
				}
				if = {
					limit = {
						2861 = {
							owned_by = G36
						}
					}
					custom_tooltip = trompolere_divide_lands_2861_tt
					hidden_effect = { #Norobnn
						2861 = {
							cede_province = G86
						}
						G86 = {
							add_opinion = {
								who = ROOT
								modifier = returned_province
							}
							add_liberty_desire = -5
						}
					}
				}
				if = {
					limit = {
						1143 = {
							owned_by = G36
						}
					}
					custom_tooltip = trompolere_divide_lands_1143_tt
					hidden_effect = { #Vels Cestor
						1143 = {
							cede_province = G37
						}
						G37 = {
							add_opinion = {
								who = ROOT
								modifier = returned_province
							}
							add_liberty_desire = -5
						}
					}
				}
				hidden_effect = {
					G36 = {
						every_owned_province = {
							cede_province = ROOT
						}
					}
				}
			country_event = { id = flavor_arverynn.3 } #Burning the tree of trompolere
		}
	}
	##Mission End
	##Mission Start
	rightful_rulers_of_sarda = {
		icon = mission_crystal_focus
		required_missions = {
			teach_them_a_lesson
		}
		position = 4
		provinces_to_highlight = {
			OR = {
				province_id = 1133
				owned_by = G39
			}
			NOT = {
				country_or_subject_holds = ROOT
				owner = {
					tag = G39
					is_subject = no
					has_opinion = {
						who = ROOT
						value = 125
					}
				}
			}
		}
		trigger = {
			legitimacy = 95
			num_of_subjects = 5
			yrw_has_settled_one_reform = yes
			if = {
				limit = {
					G39 = { owns_core_province = 1133 }
				}
				G39 = {
					OR = {
						AND = {
							is_subject = no
							has_opinion = {
								who = ROOT
								value = 125
							}
						}
						is_subject_of = ROOT
					}
				}
			}
			else = {
				1133 = {
					country_or_non_sovereign_subject_holds = ROOT
				}
				G39 = {
					OR = {
						is_subject_of = ROOT
						exists = no
					}
				}
			}
		}
		effect = {
            if = {
                limit = {
                    G39 = { 
						is_subject = no
                        exists = yes
                    }
                }
				if = {
					limit = { 
						has_dlc = "El Dorado"
						primitives = yes
					}
					add_authority = 50
				}
				else = {
					add_legitimacy = 50
					add_devotion = 50
					add_republican_tradition = 15
				}
                hidden_effect = {
                    G39 = { country_event = { id = ynn_events.20 } } #so that Selocshana and any other iosahar of theirs is transferred to you
                }
                tooltip = {
                    ROOT = {
                        create_subject = {
                            subject_type = ynnic_iosahar
                            subject = G39
                        }
                    }
                }
            }
            else_if = {
                limit = {
                    G39 = {
                        exists = no
                    }
                    1133 = {
                        country_or_non_sovereign_subject_holds = ROOT
                    }
                }
				if = {
					limit = { 
						has_dlc = "El Dorado"
						primitives = yes
					}
					add_authority = 50
				}
				else = {
					add_legitimacy = 50
					add_devotion = 50
					add_republican_tradition = 15
				}
                1133 = { owner = { release = G39 } }
                ROOT = {
                    create_subject = {
                        subject_type = ynnic_iosahar
                        subject = G39
                    }
                }
				hidden_effect = {
					G39 = {
						change_government = theocracy
						add_government_reform = leading_clergy_reform
						change_religion = ROOT
									
						define_ruler = {
							dynasty = original_dynasty
							religion = ROOT
						}
						add_opinion = {
							who = ROOT
							modifier = saved_us_from_warlord
						}
					}
				}
            }
            else_if = {
                limit = {
                    G39 = {
                        is_subject_of = ROOT
                    }
                }
				if = {
					limit = { 
						has_dlc = "El Dorado"
						primitives = yes
					}
					add_authority = 60
				}
				else = {
					add_legitimacy = 60
					add_devotion = 60
					add_republican_tradition = 20
				}
            }
			if = {
				limit = {
					yrw_has_settled_first_debate_we_alone = yes
				}
				G39 = {
					add_trust = {
						who = ROOT
						value = -10
						mutual = no
					}
					add_opinion = {
						who = ROOT
						modifier = opinion_disappointed
					}
				}
			}
			else_if = {
				limit = {
					yrw_has_settled_first_debate_we_embrace = yes
				}
				G39 = {
					add_trust = {
						who = ROOT
						value = 10
						mutual = yes
					}
					add_opinion = {
						who = ROOT
						modifier = opinion_grateful
					}
				}
			}
			hidden_effect = {
				country_event = { id = flavor_arverynn.29 days = 5 }
			}
        }
	}
	##Mission End
	##Mission Start
	arverynnic_rennaisance = {
		icon = sponsor_the_arts
		required_missions = {
			rightful_rulers_of_sarda currency_reform
		}
		position = 5
		trigger = {
			OR = {
				AND = {
					artist = 2
					employed_advisor = {
						culture = sarda
						type = artist
					}
				}
				AND = {
					prestige = 50
					adm_power = 100
				}
				adm_power = 200
			}
			employed_advisor = {
				category = DIP
			}
			employed_advisor = {
				category = MIL
			}
			treasury = 350
			has_estate_privilege = estate_burghers_patronage_of_the_arts
		}
		effect = {
			if = {
				limit = {
					artist = 2
					employed_advisor = {
						culture = sarda
						type = artist
					}
				}
			}
			else_if = {
				limit = {
					prestige = 50
					adm_power = 100
				}
				add_adm_power = -100
			}
			else = {
				add_adm_power = -200
			}
			add_treasury = -350
			if = {
				limit = {
					OR = {
						has_institution = renaissance
						1139 = { current_institution = 100 }
					}
				}
				add_stability = 1
				add_splendor = 100
			}
			else = {
				1139 = {
					add_institution_embracement = {
						which = renaissance
						value = 50
					}
				}
			}
			hidden_effect = { country_event = { id = flavor_arverynn.21 days = 60 } }
		}
	}
	##Mission End
	##Mission Start
	relics_of_the_vyrekynn = {
		icon = mission_jawal_silver_mine
		required_missions = {
			arverynnic_rennaisance
		}
		position = 6
		trigger = {
			dynasty = "Vyrekynn"
			prestige = 80
			treasury = 500
			adm_power = 50
			dip_power = 50
			mil_power = 50
		}
		effect = {
			country_event = { id = flavor_arverynn.100 } #Crafting a Relic of Vyrekynn chain
		}
	}
	##Mission End
	##Mission Start
	subjugate_the_rzentur = {
		icon = mission_invade_maharashtra
		required_missions = {
			march_on_mocvamsto
		}
		position = 7
		provinces_to_highlight = {
			OR = {
				area = pomvasonn_area
				area = juzondezan_area
				area = aivndezan_area
			}
			NOT = {
				country_or_non_sovereign_subject_holds = ROOT
				is_city = no
			}
		}
		trigger = {
			pomvasonn_area = {
				type = all
				OR = {
					is_city = no
					country_or_non_sovereign_subject_holds = ROOT
				}
			}
			juzondezan_area = {
				type = all
				country_or_non_sovereign_subject_holds = ROOT
			}
			aivndezan_area = {
				type = all
				OR = {
					is_city = no
					country_or_non_sovereign_subject_holds = ROOT
				}
			}
		}
		effect = {
			add_country_modifier = {
				name = G35_defeated_the_dragon_cult
				duration = 9125 #25 Years
			}
		}
	}
	##Mission End
	##Mission Start
	towards_the_high_city = {
		icon = mission_fortifying_the_plain
		required_missions = {
			subjugate_the_rzentur
		}
		position = 8
		provinces_to_highlight = {
			OR = {
				area = svemel_area
				area = munapeim_area
				area = drozmajaivn_area
				area = zasich_area
			}
			NOT = {
				is_city = no
				country_or_non_sovereign_subject_holds = ROOT
			}
		}
		trigger = {
			svemel_area = {
				type = all
				country_or_non_sovereign_subject_holds = ROOT
			}
			munapeim_area = {
				type = all
				country_or_non_sovereign_subject_holds = ROOT

			}
			drozmajaivn_area = {
				type = all
				OR = {
					is_city = no
					country_or_non_sovereign_subject_holds = ROOT
				}
			}
			zasich_area = {
				type = all
				OR = {
					is_city = no
					country_or_non_sovereign_subject_holds = ROOT
				}
			}
		}
		effect = {
			if = {
				limit = { 
					has_dlc = "El Dorado"
					primitives = yes
				}
				add_authority = 25
			}
			else = {
				add_legitimacy = 25
				add_devotion = 25
				add_republican_tradition = 10
			}
			if = {
				limit = {
					religion = ynn_river_reformed
				}
				add_country_modifier = {
				name = G35_victory_over_dragon_cult
				duration = 9125 #25 Years
				}
			}
			else = {
				add_prestige = 25
			}

		}
	}
	##Mission End
	##

}
##BranchEnd 2
##BranchStart 3
reform_branch = {
	slot = 4
	generic = no
	ai = yes
	potential = {
		 OR = {
            tag = G35
            AND = {
                tag = U69
                was_tag = G35
            }
            AND = {
                tag = H27
                was_tag = G35
            }
        }
		NOT = { map_setup = map_setup_random }
	}
	has_country_shield = yes

	##Mission Start
	resolve_our_debts = {
		icon = mission_vedic_education
		required_missions = {

		}
		position = 1
		trigger = {
			NOT = {
				num_of_loans = 1
			}
			is_year = 1446
		}
		effect = {
			add_country_modifier = {
				name = G35_cautious_economics
				duration = 7300 #20 Years
			}
		}
	}
	##Mission End
	##Mission Start
	centralized_bureaucracy = {
		icon = mission_writing_book
		required_missions = {
			defeat_the_rebellion
		}
		position = 3
		trigger = {
			crown_land_share = 40
		}
		effect = {
			add_country_modifier = {
				name = G35_arverynnic_administration #Gets turned into a reform when you reform religion
				duration = -1
			}
			add_country_modifier = {
				name = G35_displeased_feudal_lords
				duration = 3650 #10 Years
			}
			hidden_effect = {
				U24 = {
					country_event = { id = flavor_arvezl.3 days = 60 }
				}
			}
		}
	}
	##Mission End
	##Mission Start
	currency_reform = {
		icon = reform_the_state
		required_missions = {
			centralized_bureaucracy
		}
		position = 4
		provinces_to_highlight = {
			province_id = 1134
			NOT = {
				country_or_non_sovereign_subject_holds = ROOT
			}
		}
		trigger = {
			1134 = {
				country_or_non_sovereign_subject_holds = ROOT
			}
			if = {
				limit = { 
					has_dlc = "El Dorado"
					primitives = yes
				}
				authority = 10
			}
			else = {
				legitimacy_equivalent = 10
			}
			adm_power = 100
		}
		effect = {
			if = {
				limit = { 
					has_dlc = "El Dorado"
					primitives = yes
				}
				add_authority = -10
			}
			else = {
				add_legitimacy = -10
				add_devotion = -10
				add_republican_tradition = -10
			}
			add_adm_power = -100
			add_years_of_income = 3
			country_event = { id = flavor_arverynn.19 } #Defiance of Vels Domfan
		}
	}
	##Mission End
	##Mission Start
	land_reform = {
		icon = mission_rice_field
		required_missions = {
			currency_reform
		}
		position = 5
		trigger = {
			num_of_owned_provinces_with = {
				value = 10
				is_core = ROOT
			}
			adm_power = 100
			mil_power = 100
			crown_land_share = 50
		}
		effect = {
			add_adm_power = -100
			add_mil_power = -100
			change_estate_land_share = {
				estate = estate_nobles
				share = -10
			}
			change_estate_land_share = {
				estate = estate_burghers
				share = 20
			}
			add_country_modifier = {
				name = G35_arverynnic_feudalism
				duration = -1
			}
			country_event = { id = flavor_arverynn.20 } #The Hidden Struggle
		}
	}
	##Mission End
	##Mission Start
	vyrisamsto = {
		icon = take_constantinople
		required_missions = {
			arverynnic_rennaisance land_reform sarda_stability
		}
		position = 6
		provinces_to_highlight = {
			province_id = 1139
			NOT = {
				AND = {
					development = 35
					has_tax_building_trigger = yes
					has_production_building_trigger = yes
					has_manpower_building_trigger = yes
				}
			}
		}
		trigger = {
			prestige = 80
			1139 = {
				development = 35
				has_tax_building_trigger = yes
				has_production_building_trigger = yes
				has_manpower_building_trigger = yes
			}
		}
		effect = {
			1139 = {
				add_center_of_trade_level = 1
				remove_province_modifier = ynn_urban_decline
				add_province_modifier = {
					name = G35_rapid_urbanization
					duration = 7300 #20 Years
				}
			}
		}
	}
	##Mission End
	##Mission Start
	foreigners_at_the_gates = {
		icon = the_italian_league
		required_missions = {
			vyrisamsto
		}
		position = 7
		provinces_to_highlight = {
			province_id = 1139
			NOT = { 
				AND = {
					owned_by = ROOT
					is_core = ROOT
				}
			}
		}
		trigger = {
			owns_core_province = 1139
			any_known_country = {
				has_cannorian_tech_group = yes
			}
		}
		effect = {
			country_event = { id = flavor_arverynn.49 } #Foreigners at the gates
			hidden_effect = {
				country_event = { id = flavor_arverynn.22 days = 3650 random = 3650 }	#Our Prayers Heard, 10-20 years
				country_event = { id = flavor_arverynn.6 days = 9125 random = 5475 }	#Sardanir of Arverynn, 25-40 years, first generation after Cannorian contact
			}
		}
	}
	##Mission End
	##Mission Start
	pansvovych = {
		icon = personal_diplomacy
		required_missions = {
			foreigners_at_the_gates
		}
		position = 8
		provinces_to_highlight = {
			OR = {
				region = veykoda_region
				owner = {
					OR = {
						tag = G94
						tag = H54
						tag = H55
						tag = H56
						tag = H57
						tag = H35
					}
				}
			}
			NOT = { country_or_subject_holds = ROOT }
		}
		trigger = {
			custom_trigger_tooltip = {
				tooltip = pansvovych_tt
				H35 = {
					OR = {
						is_subject_of = ROOT    #Corinsfield exists and is subjugated
						all_core_province = {    #Corinsfield Ynn cores are subjugated
							OR = {
								country_or_non_sovereign_subject_holds = ROOT
								NOT = {
									superregion = ynn_superregion
								}
							}
						}
						NOT = {    #Corinsfield has no cores in the Ynn
							ynn_superregion = {
								is_core = H35
							}
						}
					}
				}
				OR = {
					H58 = {
						OR = {
							is_subject_of = ROOT    #Chipped Tooth Company exists and is subjugated
							all_core_province = {    #Chipped Tooth Company Ynn cores are subjugated
								OR = {
									country_or_non_sovereign_subject_holds = ROOT
									NOT = {
										superregion = ynn_superregion
									}
								}
							}
							NOT = {    #Chipped Tooth Company has no cores in the Ynn
								ynn_superregion = {
									is_core = H59
								}
							}
						}
					}
					H59 = {
						OR = {
							is_subject_of = ROOT    #Chippengard exists and is subjugated
							all_core_province = {    #Chippengard Ynn cores are subjugated
								OR = {
									country_or_non_sovereign_subject_holds = ROOT
									NOT = {
										superregion = ynn_superregion
									}
								}
							}
							NOT = {    #Chippengard has no cores in the Ynn
								ynn_superregion = {
									is_core = H59
								}
							}
						}
					}
				}
				OR = {
					H54 = {
						OR = {
							is_subject_of = ROOT    #Tipney Pioneers exists and is subjugated
							all_core_province = {    #Tipney Pioneers Ynn cores are subjugated
								OR = {
									country_or_non_sovereign_subject_holds = ROOT
									NOT = {
										superregion = ynn_superregion
									}
								}
							}
							NOT = {    #Tipney Pioneers has no cores in the Ynn
								ynn_superregion = {
									is_core = H54
								}
							}
						}
					}
					H55 = {
						OR = {
							is_subject_of = ROOT    #West Tipney exists and is subjugated
							all_core_province = {    #West Tipney Ynn cores are subjugated
								OR = {
									country_or_non_sovereign_subject_holds = ROOT
									NOT = {
										superregion = ynn_superregion
									}
								}
							}
							NOT = {    #West Tipney has no cores in the Ynn
								ynn_superregion = {
									is_core = H55
								}
							}
						}
					}
				}
				OR = {
					H56 = {
						OR = {
							is_subject_of = ROOT    #Havoral Band exists and is subjugated
							all_core_province = {    #Havoral Band Ynn cores are subjugated
								OR = {
									country_or_non_sovereign_subject_holds = ROOT
									NOT = {
										superregion = ynn_superregion
									}
								}
							}
							NOT = {    #Havoral Band has no cores in the Ynn
								ynn_superregion = {
									is_core = H56
								}
							}
						}
					}
					H57 = {
						OR = {
							is_subject_of = ROOT    #New Havoral exists and is subjugated
							all_core_province = {    #New Havoral Ynn cores are subjugated
								OR = {
									country_or_non_sovereign_subject_holds = ROOT
									NOT = {
										superregion = ynn_superregion
									}
								}
							}
							NOT = {    #New Havoral has no cores in the Ynn
								ynn_superregion = {
									is_core = H57
								}
							}
						}
					}	
				}
				G94 = {
					OR = {
						is_subject_of = ROOT    #Balgabar exists and is subjugated
						all_core_province = {    #Balgabar Ynn cores are subjugated
							OR = {
								country_or_non_sovereign_subject_holds = ROOT
								NOT = {
									superregion = ynn_superregion
								}
							}
						}
						NOT = {    #Balgar has no cores on the Ynn
							ynn_superregion = {
								is_core = G94
							}
						}
					}
				}
			}
			veykoda_region = {
				type = all
				country_or_subject_holds = ROOT
			}
		}
		effect = {
			add_country_modifier = { #Add event doubling this at 10 cannorian subjects TODO
				name = G35_lord_of_lords
				duration = -1
			}
			custom_tooltip = lord_of_lords_tt
			custom_tooltip = lord_of_lords_release_explain_tt
			hidden_effect = {
				if = {
					limit = {
						G94 = {
						exists = no
						}
						any_core_province = {
							country_or_non_sovereign_subject_holds = ROOT
							is_core = G94
						}
					}
					north_america = {
						limit = {
							country_or_non_sovereign_subject_holds = ROOT
							is_core = G94
						}
						cede_province = G94
					}
					vassalize = G94
				}
				if = {
					limit = {
						H57 = {
						exists = no
						}
						any_core_province = {
							country_or_non_sovereign_subject_holds = ROOT
							is_core = H57
						}
					}
					north_america = {
						limit = {
							country_or_non_sovereign_subject_holds = ROOT
							is_core = H57
						}
						cede_province = H57
					}
					vassalize = H57
				}
				if = {
					limit = {
						H56 = {
							exists = no
						}
						any_core_province = {
							country_or_non_sovereign_subject_holds = ROOT
							is_core = H56
						}
					}
					north_america = {
						limit = {
							country_or_non_sovereign_subject_holds = ROOT
							is_core = H56
						}
						cede_province = H56
					}
					vassalize = H56
				}
				if = {
					limit = {
						H55 = {
							exists = no
						}
						any_core_province = {
							country_or_non_sovereign_subject_holds = ROOT
							is_core = H55
						}
					}
					north_america = {
						limit = {
							country_or_non_sovereign_subject_holds = ROOT
							is_core = H55
						}
						cede_province = H55
					}
					vassalize = H55
				}
				if = {
					limit = {
						H54 = {
							exists = no
						}
						any_core_province = {
							country_or_non_sovereign_subject_holds = ROOT
							is_core = H54
						}
					}
					north_america = {
						limit = {
							country_or_non_sovereign_subject_holds = ROOT
							is_core = H54
						}
						cede_province = H54
					}
					vassalize = H54
				}
				if = {
					limit = {
						H58 = {
						exists = no
						}
						any_core_province = {
							country_or_non_sovereign_subject_holds = ROOT
							is_core = H58

						}
					}
					north_america = {
						limit = {
							country_or_non_sovereign_subject_holds = ROOT
							is_core = H58
						}
						cede_province = H58
					}
					vassalize = H58
				}
				if = {
					limit = {
						H59 = {
						exists = no
						}
						any_core_province = {
							country_or_non_sovereign_subject_holds = ROOT
							is_core = H59

						}
					}
					north_america = {
						limit = {
							country_or_non_sovereign_subject_holds = ROOT
							is_core = H59
						}
						cede_province = H59
					}
					vassalize = H59
				}
				if = {
					limit = {
						H35 = {
						exists = no
						}
						any_core_province = {
							country_or_non_sovereign_subject_holds = ROOT
							is_core = H35

						}
					}
					north_america = {
						limit = {
							country_or_non_sovereign_subject_holds = ROOT
							is_core = H35
						}
						cede_province = H35
					}
					vassalize = H35
				}
			}
			country_event = { id = flavor_arverynn.50 } #Pansvovych, which vassal / group to favour
		}
	}
	##Mission End
	##Mission Start
	dominate_the_tributaries = {
		icon = mission_pow_powhatan_fleet
		required_missions = {
			pansvovych
		}
		position = 9
		provinces_to_highlight = {
			province_id = 1139
			OR = {
				NOT = { has_trade_building_trigger = yes }
				NOT = {	province_has_center_of_trade_of_level = 3 }	#Tweak later
			}
		}
		trigger = {
			yrw_has_settled_cannorian_debates = yes
			owns_core_province = 1139 
			1139 = { #Lower Ynn tradenode
				trade_share = {
					country = ROOT
					share = 80
				}
				if = {
					limit = { has_dlc = "Dharma" }
					province_has_center_of_trade_of_level = 3
				}
				else = {
					has_trade_building_trigger = yes
				}
			}
			num_of_subjects = 8
			num_of_owned_provinces_with = {
				value = 20
				is_core = ROOT
			}
		}
		effect = {
			add_mercantilism = 5
			custom_tooltip = yrw_cannorian_different_rewards
			if = {
				limit = {
					yrw_has_settled_third_debate_guns = yes
					yrw_has_settled_fourth_debate_cannorization = yes
				}
				if = {
					limit = {
						any_subject_country = {
							institution_difference = {
								who = ROOT
								value = 1
							}
						}	
					}
					1139 = {
						add_next_institution_embracement = 100
					}
				}
				add_country_modifier = {
					name = G35_wonders_of_the_east
					duration = 18250 #50 Years
				}
			}
			else_if = {
				limit = {
					yrw_has_settled_third_debate_no_guns = yes
					yrw_has_settled_fourth_debate_conservative = yes
				}
				add_stability_or_adm_power = yes
				add_country_modifier = {
					name = G35_primacy_over_the_tributaries
					duration = 18250 #50 Years
				}
			}
			else_if = {
				limit = {
					OR = {
						AND = {
							yrw_has_settled_third_debate_guns = yes
							yrw_has_settled_fourth_debate_conservative = yes
						}
						AND = {
							yrw_has_settled_third_debate_no_guns = yes
							yrw_has_settled_fourth_debate_cannorization = yes
						}
					}
				}
				add_stability_or_adm_power = yes
				add_country_modifier = {
					name = G35_a_compromise_reached
					duration = 18250 #50 Years
				}
			}
		}
	}
	##Mission End
	##

}
##BranchEnd 3
##BranchStart 4
economy_branch = {
	slot = 5
	generic = no
	ai = yes
	potential = {
		 OR = {
            tag = G35
            AND = {
                tag = U69
                was_tag = G35
            }
            AND = {
                tag = H27
                was_tag = G35
            }
        }
		NOT = { map_setup = map_setup_random }
	}
	has_country_shield = yes

	##Mission Start
	emergency_measures = {
		icon = mission_high_income
		required_missions = {

		}
		position = 1
		trigger = {
			num_of_loans = 10
			has_ruler = "Calrodiy IV"
		}
		effect = {
			add_treasury = 200
			add_corruption = 5
			country_event = { id = flavor_arverynn.17 } #Duty and Sacrifice
		}
	}
	##Mission End
	##Mission Start
	rebuild_our_city = {
		icon = mission_arverynn_street
		required_missions = {
			resolve_our_debts
		}
		position = 2
		provinces_to_highlight = {
			province_id = 1139
			NOT = {
				AND = {
					has_tax_building_trigger = yes
					has_production_building_trigger = yes
					development = 20
				}
			}
		}
		trigger = {
			1139 = {
				has_tax_building_trigger = yes
				has_production_building_trigger = yes
				development = 20
			}
		}
		effect = {
			country_event = { id = flavor_arverynn.16 } #Rise Above the Decline
		}
	}
	##Mission End
	##Mission Start
	the_northern_connection = {
		icon = mission_conquer_malwa_bah
		required_missions = {
			rebuild_our_city
		}
		position = 3
		provinces_to_highlight = {
			OR = {
				AND = {
					province_id = 1140
					NOT = { has_trade_building_trigger = yes }
				}
				owner = {
					tag = G85
					OR = {
						NOT = {
							has_opinion = {
								who = ROOT
								value = 200
							}
						}
						NOT = { is_subject_of = ROOT }
					}
				}
			}
		}
		trigger = {
			OR = {
				G85 = {
					has_opinion = {
						who = ROOT
						value = 200
					}
					is_subject_of = ROOT
				}
				AND = {
					G85 = {
						exists = no
					}
					owns_core_province = 1140
				}
			}

			1140 = {
				has_trade_building_trigger = yes
				country_or_subject_holds = ROOT
			}
		}
		effect = {
			if = {
				limit = {
					G85 = {
						exists = yes
					}
				}
				ROOT = {
					inherit = G85
				}
			}
			else = {
				add_years_of_income = 0.2
			}
			add_estate_influence_modifier = {
				estate = estate_burghers
				desc = burghers_influence_modifier
				influence = 10
				duration = 7300
			}
			custom_tooltip = G35_tromseloc_way_tt
		}
	}
	##Mission End
	##Mission Start
	repopulate_the_countryside = {
		icon = prosperity_for_all
		required_missions = {
			the_northern_connection
		}
		position = 4
		provinces_to_highlight = {
			owned_by = ROOT
			OR = {
				area = arverynn_area
				area = hradapolere_area
				area = ynncytr_area
			}
			NOT = {
				province_id = 1139
				AND = {
					development = 10
					has_production_building_trigger = yes
					has_manpower_building_trigger = yes
				}
			}
		}
		trigger = {
			num_of_owned_provinces_with = {
				value = 5
				NOT = {
					province_id = 1139
				}
				OR = {
					area = arverynn_area
					area = hradapolere_area
					area = ynncytr_area
				}
				development = 10
				has_production_building_trigger = yes
				has_manpower_building_trigger = yes
			}
		}
		effect = {
			1139 = {
				add_base_production = 1
				add_base_tax = 1
				add_base_manpower = 1
			}
			if = {
				limit = {
					NOT = {
						is_year = 1550
					}
				}
				add_yearly_manpower = 2
			}
			else = {
				add_manpower = 5
			}
			remove_country_modifier = G35_blunder_of_calrodiy_iv
			hidden_effect = {
				country_event = { id = flavor_arverynn.14 days = 60 }
			}
		}
	}
	##Mission End
	##Mission Start
	sarda_stability = {
		icon = the_crown_of_lothair
		required_missions = {
			repopulate_the_countryside
		}
		position = 5
		provinces_to_highlight = {
			area = arverynn_area
			NOT = { owned_by = ROOT }
			OR = {
				NOT = {
					ROOT = {
						years_of_income = 0.5
						adm_power = 50
					}
				}
				NOT = { is_empty = yes }
			}
		}
		trigger = {
			stability = 2
			OR = {
				arverynn_area = {
					type = all
					owned_by = ROOT
					is_core = ROOT
				}
				AND = {
					arverynn_area = {
						type = all
						OR = {
							owned_by = ROOT
							is_empty = yes
						}
					}
					years_of_income = 0.5
					adm_power = 50
				}
			}
		}
		effect = {
			if = {
				limit = {
					2841 = {
						is_empty = yes
					}
				}
				2841 = {
					cede_province = ROOT
					add_core = ROOT
					hidden_effect = { change_culture = veykodan }
					add_province_modifier = {
						name = ynn_pomentere_estates
						duration = -1
					}
				}
				add_years_of_income = -0.5
				add_adm_power = -50
			}
			add_country_modifier = {
				name = G35_sarda_stability
				duration = 7300 #20 Years
			}
		}
	}
	##Mission End
	##Mission Start
	the_teal_keep = {
		icon = mission_central_asian_city
		required_missions = {
			vyrisamsto
		}
		position = 7
		provinces_to_highlight = {
			province_id = 1139
			NOT = {
				AND = {
					owned_by = ROOT
					has_fort_building_trigger = yes
					base_manpower = 8
					OR = {
						has_great_project = {
							type = ynnic_teal_keep
							tier = 2
						}
						has_great_project = {
							type = ynnic_teal_keep
							tier = 3
						}
					}
				}
			}
		}
		trigger = {
			owns_core_province = 1139
			1139 = {
				has_fort_building_trigger = yes
				base_manpower = 8
				OR = {
					has_great_project = {
						type = ynnic_teal_keep
						tier = 2
					}
					has_great_project = {
						type = ynnic_teal_keep
						tier = 3
					}
				}
			}
		}
		effect = {
			define_advisor = {
				type = statesman
				culture = sarda
				discount = yes
				skill = 3
			}
		}
	}
	##Mission End
	##Mission Start
	cannorian_encroachment = {
		icon = mission_rb_colonise_canada
		required_missions = {
			foreigners_at_the_gates
		}
		position = 8
		provinces_to_highlight = {
			region = veykoda_region
			NOT = { country_or_subject_holds = ROOT }
			NOT = { owned_by = ROOT }
		}
		trigger = {
			yrw_has_settled_first_debate = yes
			adm_power = 100
			treasury = 50
			custom_trigger_tooltip = {
				tooltip = G35_empty_tooltip
				has_country_flag = G35_veykodan_mercs_available_flag
			}
			num_of_owned_provinces_with = {
				value = 4
				culture = veykodan
				has_province_modifier = ynn_pomentere_estates
			}
			if = {
				limit = { exists = U21 }
				U21 = { is_subject_of = ROOT }
			}
			else = {
				num_of_provinces_owned_or_owned_by_non_sovereign_subjects_with = {
					value = 10
					region = veykoda_region
					owner = {
						NOT = {
							technology_group = tech_ynnic
							tag = ROOT
						}
					}
				}
			}
			if = {
				limit = {
					veykoda_region = {
						type = all
						is_city = yes
					}
				}
				veykoda_region = {
					owned_by = ROOT
				}
			}
		}
		effect = {
			add_adm_power = -100
			add_treasury = -50
			custom_tooltip = G35_veykodan_migration_tt
			hidden_effect = {
				clr_country_flag = has_pomentere_estates
				if = {
					limit = {
						num_of_owned_provinces_with = {
							value = 20
							culture = veykodan
						}
					}
					set_country_flag = g35_20_veykodan_client
				}
				else_if = {
					limit = {
						num_of_owned_provinces_with = {
							value = 16
							culture = veykodan
						}
					}
					set_country_flag = g35_16_veykodan_client
				}
				else_if = {
					limit = {
						num_of_owned_provinces_with = {
							value = 12
							culture = veykodan
						}
					}
					set_country_flag = g35_12_veykodan_client
				}
				else_if = {
					limit = {
						num_of_owned_provinces_with = {
							value = 8
							culture = veykodan
						}
					}
					set_country_flag = g35_8_veykodan_client
				}
				every_owned_province = {
					limit = {
						culture = veykodan
						has_province_modifier = ynn_pomentere_estates
					}
					add_base_tax = -1
					add_base_manpower = -1
					if = {
						limit = {
							region = sarda_region
						}
						change_culture = sarda
					}
					else_if = {
						limit = {
							region = dolindha_region
						}
						change_culture = dolindhan
					}
					else_if = {
						limit = {
							region = rzenta_region
						}
						change_culture = rzentur
					}
					remove_province_modifier = ynn_pomentere_estates
				}
			}
			
			if = {	#Cedes them an empty province near Sarda
				limit = {
					OR = {
						ynncytr_area = { is_empty = yes }
						favesrinn_area = { is_empty = yes }
						adbrabohvi_area = { is_empty = yes }
					}
				}
				random_province = {
					limit = {
						OR = {
							area = ynncytr_area
							area = favesrinn_area
							area = adbrabohvi_area
						}
						is_city = no
					}
					cede_province = U21
					add_core = U21
					add_base_manpower = 4
					add_base_tax = 4
					change_culture = veykodan
					change_religion = rune_scribes
				}
			}
			else_if = {	#Otherwise an empty province in Veykoda
				limit = {
					veykoda_region = { is_empty = yes }
				}
				random_province = {
					limit = {
						region = veykoda_region
						is_city = no
					}
					cede_province = U21
					add_core = U21
					add_base_manpower = 4	#They'd lose people during the trek but at the same time some tribes would join them
					add_base_tax = 4
					change_culture = veykodan
					change_religion = rune_scribes
				}
			}
			else = {	#They get one of your provinces in Veykoda
				random_owned_province = {
					limit = {
						region = veykoda_region
					}
					cede_province = U21
					add_core = U21
					add_base_manpower = 4	#They'd lose people during the trek but at the same time some tribes would join them
					add_base_tax = 4
					change_culture = veykodan
					change_religion = rune_scribes
				}
			}
			if = {
				limit = {
					U21 = {
						NOT = {
							is_subject_of_type = march
						}
					}
				}
				ROOT = {
					create_subject = {
						subject_type = march
						subject = U21
					}
				}
			}
			U21 = {
				add_country_modifier = {
					name = G35_veykodan_migration
					duration = 7300 #20 Years
				}
				hidden_effect = {
					country_event = { id = flavor_arverynn.48 }	#Veykodan Client setup, gets extra dev and buildings depending on your number of Pomentere
				}
			}
		}
	}
	##Mission End
	##Mission Start
	radavezyr = {
		icon = invest_in_the_rich_trades
		required_missions = {
			cannorian_encroachment
		}
		position = 9
		provinces_to_highlight = {
			##PROVINCESHIGHLIGHTCODE
		}
		trigger = {
			U21 = {
				is_subject_of = ROOT
				num_of_owned_provinces_with = {
					value = 5
					is_core = U21
					NOT = {
						culture = sarda
					}
				}
			}
		}
		effect = {
			custom_tooltip = yrw1_different_rewards
			if = {
				limit = {
					yrw_has_settled_first_debate_we_embrace = yes
				}
				U21 = {
					add_country_modifier = {
						name = G35_radavezyr
						duration = -1
					}
				}
			}
			else_if = {
				limit = {
					yrw_has_settled_first_debate_we_alone = yes
				}
				U21 = {
					add_country_modifier = {
						name = G35_polersvych
						duration = -1
					}
				}
			}
			set_country_flag = G35_improved_guard_flag
		}
	}
	##Mission End
	##

}
##BranchEnd 4
