# Developers: Alectron and ProfNero

mountainhugger_1 = {
	slot = 1
	generic = no
	ai = yes
	potential = {
		OR = {
			tag = U14
			AND = {
				tag = F78
				was_tag = U14
			}
		}
	}
	has_country_shield = yes

	U14_secure_the_mountain = {
		icon = expand_the_terraferma
		required_missions = { U14_vilify_our_rivals
		}
		position = 2

		provinces_to_highlight = {
			OR = {
				AND = {
					province_id = 527
					NOT = {infantry_in_province = 1} 
				}
				
				AND = {
					province_id = 1312
					NOT = {galleys_in_province = 1} 
				}
			}	
		}

		trigger = { 
			527 = { infantry_in_province = 1 } #Zlatikonu
			1312 = { galleys_in_province = 1 } #Sea of Echoes
			num_of_generals = 1
			mil_power = 25
		}

		effect = {	
			add_mil_power = -25
			526 = { #Ovdal-Tungr
				add_province_modifier = {
					name = U14_province_scouted
					duration = 1825
				}
				add_permanent_claim = U14
			}
			525 = { add_permanent_claim = U14 } #Gordihr
		}
	}

	U14_dig_hole = {
		icon = mission_colonial
		required_missions = { U14_secure_the_mountain
		}
		position = 3

		provinces_to_highlight = {
			AND = {
				area = tungr_mountains_area
				NOT = {owned_by = ROOT}
			}		
		}

		trigger = {
			treasury = 50
			tungr_mountains_area = {
				type = all
				owned_by = ROOT
				is_core = ROOT
			}
		}

		effect = {
			add_treasury = -50
			527 = { 
				add_dwarven_minority_size_effect = yes
				add_base_production = 3 
			}
			526 = { add_goblin_minority_size_effect = yes }
		}
	}

	U14_two_races_one_hold = {
		icon = mission_indian_stateman
		required_missions = { U14_dig_hole
		}
		position = 4

		provinces_to_highlight = {
			province_id = 526 #Ovdal-Tungr
		}
		
		trigger = {
			526 = {
				NOT = {
					has_province_modifier = ruined_hold
					has_province_modifier = infested_hold
				}
				has_fort_building_trigger = yes
			}
			OR = {
				accepted_culture = copper_dwarf
				has_adopted_cult = ancestor_worship_cult
			}
			OR = {
				treasurer = 1
				master_of_mint = 1
			}
		}

		effect = {
			526 = { #Ovdal-Tungr
				add_goblin_minority_size_effect = yes
				add_base_production = 1
			}
			525 = { #Gordihr
				change_culture = exodus_goblin
				change_religion = ROOT
                add_base_tax = 1
                add_base_production = 1
                add_base_manpower = 1
			}
		}
	}

	U14_bahar_new_bankers = {
		icon = mission_african_gold
		required_missions = { U14_two_races_one_hold U14_consolidate_west_bahar	}
		position = 5

		provinces_to_highlight = {
			OR = {
				AND = {
					province_id = 527 #Azka-Evran
					NOT = {base_production = 15}
					has_tax_building_trigger = no
					has_production_building_trigger = no
				}
				
				AND = {
					province_id = 528 #Azka-Evran
					NOT = {base_production = 15}
					has_tax_building_trigger = no
					has_production_building_trigger = no
				}
				
				owner = {
					AND = {
						capital_scope = { superregion = bulwar_superregion }
						has_opinion = {
							who = ROOT
							value = 1
						}
						NOT = { 
							has_country_modifier = monstrous_nation
						}
						has_estate = estate_burghers
					}
				}
			}	
		}

		trigger = {
			treasury = 750
			NOT = { num_of_loans = 1 }
			527 = {	#Azka-Evran
				base_production = 15
				has_tax_building_trigger = yes
				has_production_building_trigger = yes
			}
			528 = { #Zlatikonu
				base_production = 15
				has_tax_building_trigger = yes
				has_production_building_trigger = yes
			}
			calc_true_if = {
				all_known_country = {
					capital_scope = { superregion = bulwar_superregion }
					NOT = { 
						has_country_modifier = monstrous_nation
					}
					has_opinion = {
						who = ROOT
						value = 1
					}
				}
				amount = 3
			}
		}

		effect = {		
			decrease_monstrous_3 = yes
			add_country_modifier = {
				name = U14_bankers
				duration = -1
			}

			custom_tooltip = U14_bahar_new_bankers.tt

			hidden_effect = {
				every_known_country = {
					limit = {	
						capital_scope = { superregion = bulwar_superregion }
						has_opinion = {
							who = ROOT
							value = 1
						}
						NOT = { 
							has_country_modifier = monstrous_nation
						}
					}
					add_country_modifier = {
						name = U14_goblin_bankers
						duration = 10950
					}
				}

			}
			
		}
	}
}

mountainhugger_2 = {
	slot = 2
	generic = no
	ai = yes
	potential = {
		OR = {
			tag = U14
			AND = {
				tag = F78
				was_tag = U14
			}
		}
	}
	has_country_shield = yes

	U14_vilify_our_rivals = {
		icon = mission_impaled_soldies
		required_missions = { 
		}
		position = 1

		provinces_to_highlight = {
			AND = {
				OR = {
					owned_by =  U18 #Reuyel
					owned_by =  U16 #Ourdia
					owned_by =  F23 #Ovdal-Tungr
				}
				owner ={
					NOT = {is_enemy = ROOT} 
				}	
			}
		}
		
		trigger = {
			army_size_percentage = 0.9
			OR = {
				is_rival = U18 #Reuyel
				is_rival = U16 #Ourdia
				is_rival = F23 #Ovdal-Tungr
			}
		}

		effect = {
			add_country_modifier = {
				name = U14_vilified_rivals
				duration = -1
			}
			add_ruler_modifier = {
				name = U14_angry_af
				duration = -1
			}
		}
	}

	U14_across_the_fortress = {
		icon = mission_into_persia_1
		required_missions = { U14_vilify_our_rivals
		}
		position = 2

		provinces_to_highlight = {
			AND = {
				province_id = 522
				OR = {
					NOT = {is_claim = ROOT}
					owner = {
						NOT = {
							has_spy_network_from = {
								who = ROOT
								value = 25
							}
						}
					}
				}
				
			}
		}
		
		trigger = {
			522 = {
				OR = {
					AND = {
						is_claim = ROOT
						owner = {
							has_spy_network_from = {
								who = ROOT
								value = 25
							}
						}
					}
					owned_by = ROOT
				} 
				
			}
			
			
		}

		effect = {
			reuyel_area = {
				limit = {
					NOT = { is_core = ROOT }
					NOT = { owned_by = ROOT }
				}
				add_permanent_claim = ROOT
			}
			522 = {
				add_province_modifier = {
					name = U14_compromised_defences
					duration = 1825
				}
				
				owner = {
					if = {
						limit = {
							has_spy_network_from = {
								who = ROOT
								value = 25
							}
						}
						add_spy_network_from = {
							who = ROOT
							value = -25
						}
					}	
				}
			}
		}
	}

	U14_old_fort_new_invaders = {
		icon = mission_levantine_restoration
		required_missions = { U14_across_the_fortress
		}
		position = 3

		provinces_to_highlight = {
			OR = {
				area = reuyel_area
				AND = {
					province_id = 522
					NOT = { infantry_in_province = 5 }
				}
			}
			
		}
		
		trigger = {
			reuyel_area = {
				type = all
				owned_by = ROOT
				is_core = ROOT
			}
			mil_power = 25
			522 = { infantry_in_province = 5 }
		}

		effect = {
			add_mil_power = -25
			country_event = { id = exodus_goblin_flavour.9 }
		}
	}
	
	U14_consolidate_west_bahar = {
		icon = mission_unite_home_region
		required_missions = { U14_old_fort_new_invaders
		}
		position = 4

		provinces_to_highlight = {
			AND = {
				OR = {
					owned_by = U18
					owned_by = F23
					owned_by = U17
					area = south_overmarch_area
					area = west_overmarch_area
					area = east_overmarch_area
					area = crathanor_area
					area = reuyel_area
					area = medbahar_area
					area = tungr_mountains_area
					
				}
				NOT = {is_state_core = ROOT}
				NOT = {owned_by = ROOT}	
			}
		}
		
		trigger = {
			NOT = {
				exists = U18
				exists = F23
				exists = U17
			}

			medbahar_area = {
				type = all
				owned_by = ROOT
				is_state_core = ROOT
			}

			reuyel_area = {
				type = all
				owned_by = ROOT
				is_state_core = ROOT
			}
			crathanor_area = {
				type = all
				owned_by = ROOT
				is_state_core = ROOT
			}
			tungr_mountains_area = {
				type = all
				owned_by = ROOT
				is_state_core = ROOT
			}
			south_overmarch_area = {
				type = all
				owned_by = ROOT
				is_state_core = ROOT
			}
			west_overmarch_area = {
				type = all
				owned_by = ROOT
				is_state_core = ROOT
			}
			east_overmarch_area = {
				type = all
				owned_by = ROOT
				is_state_core = ROOT
			}
		}

		effect = {
			remove_country_modifier = U14_vilified_rivals
			add_power_projection = {
				type = mission_rewards_power_projection
				amount = 20
			}
			magairous_area = {
				limit = {
					NOT = { is_core = ROOT }
					NOT = { owned_by = ROOT }
				}
				add_permanent_claim = ROOT
			}
			aqatbahar_area = {
				limit = {
					NOT = { is_core = ROOT }
					NOT = { owned_by = ROOT }
				}
				add_permanent_claim = ROOT
			}
			fajabahar_area = {
				limit = {
					NOT = { is_core = ROOT }
					NOT = { owned_by = ROOT }
				}
				add_permanent_claim = ROOT
			}
			azka_evran_area = {
				limit = {
					NOT = { is_core = ROOT }
					NOT = { owned_by = ROOT }
				}
				add_permanent_claim = ROOT
			}
		}
	}
}

mountainhugger_3 = {
	slot = 3
	generic = no
	ai = yes
	potential = {
		OR = {
			tag = U14
			AND = {
				tag = F78
				was_tag = U14
			}
		}
	}
	has_country_shield = yes

	U14_true_newcomers = {
		icon = mission_steppe_warriors
		required_missions = { U14_vilify_our_rivals
		}
		position = 2

		provinces_to_highlight = {
			AND = {
				province_id = 516
				NOT = {owned_by = ROOT}
			}
		}

		trigger = {
			OR = {
				516 = {
					AND = {
						has_privateer_share_in_trade_node = {
   					 		who = U14
    						share = 0.01
						}
						owner = {
							has_opinion_modifier = {
								who = ROOT
								modifier = insulted
							}
						}
					}
				}
				owns = 516
			}
		}

		effect = {
			if = {
				limit = {
					owns = 516
				}
				516 = {
					add_province_modifier = {
						name = U14_naval_block
						duration = 1825
					}
				}
			}
			
			crathanor_area = {
				limit = {
					NOT = { is_core = ROOT }
					NOT = { owned_by = ROOT }
				}
				add_permanent_claim = ROOT
			}
		}
	}
	
	U14_reunite_west = {
		icon = mission_alliances
		required_missions = { U14_true_newcomers U14_back_to_ourdia
		}
		position = 3

		provinces_to_highlight = {
			OR = {
				province_id = 516
				province_id = 510
				AND = {
					owned_by = U11
					owner = {
						AND = {
							NOT = {land_forcelimit = U11}
							NOT = {total_development = U11}
						}
					}
				}
			}
		}

		trigger = {
			516 = {
				owned_by = ROOT
				is_core = ROOT
			}
			
			510 = {
				owned_by = ROOT
				is_core = ROOT
			}
			land_forcelimit = U11
			total_development = U11
		}

		effect = {
			506 = { add_permanent_claim = U14 }
			507 = { add_permanent_claim = U14 }
			514 = { add_permanent_claim = U14 }
			515 = { add_permanent_claim = U14 }
			if = {
				limit = { exists = U11 }
				U11 = { country_event = { id = exodus_goblin_flavour.14 } }
			}
		}
	}

	U14_hugs = {
		icon = mission_cope_with_refugees
		required_missions = { U14_reunite_west
		}
		position = 4

		provinces_to_highlight = {
			AND = {
				OR = {
					province_id = 516
					province_id = 521
				}
				
				AND = {
					has_trade_building_trigger = no
					has_production_building_trigger = no
					NOT = {owned_by = ROOT}
				}
			}	
		}

		trigger = {
			accepted_culture = bahari
			accepted_culture = crathanori
			516 = {
				has_trade_building_trigger = yes
				has_production_building_trigger = yes
				owned_by = ROOT
			}
			
			521 = {
				has_trade_building_trigger = yes
				has_production_building_trigger = yes
				owned_by = ROOT
			}
		}

		effect = {
			add_country_modifier = {
				name = U14_city_coexistance
				duration = 10950
			}
			decrease_monstrous_3 = yes
			change_government_reform_progress = 50
		}
	}

	U14_from_rags_to_better_rags = {
		icon = mission_gujarati_textiles
		required_missions = { U14_hugs U14_reenact_the_siege U14_consolidate_west_bahar
		}
		position = 5
		provinces_to_highlight = {
			OR = {
				AND = {
					NOT = {owned_by = ROOT}
					OR = {
						area = magairous_area
						area = aqatbahar_area
						area = fajabahar_area
						area = azka_evran_area
					}
				}
				AND = {
					owned_by = ROOT
					AND = {
						OR = {
							trade_goods = glass
							trade_goods = wine
							trade_goods = gold
						}
						has_tax_building_trigger = no
						has_trade_building_trigger = no
					}
				}
			}
		}

		trigger = {
			magairous_area = {
				type = all
				owned_by = ROOT
				is_core = ROOT
			}
			aqatbahar_area = {
				type = all
				owned_by = ROOT
				is_core = ROOT
			}
			fajabahar_area = {
				type = all
				owned_by = ROOT
				is_core = ROOT
			}
			azka_evran_area = {
				type = all
				owned_by = ROOT
				is_core = ROOT
			}
			all_owned_province = {
				OR = {
					AND = {
						not = { trade_goods = glass }
						not = { trade_goods = wine }
						not = { trade_goods = gold }
					} 
					AND = {
						has_tax_building_trigger = yes
						has_production_building_trigger = yes
					}
				}
				
			}
			monthly_income = 50
		}

		effect = {
			add_country_modifier = {
				name = U14_better_rags
				duration = 9125
			}
		}
	}
}

mountainhugger_4 = {
	slot = 4
	generic = no
	ai = yes
	potential = {
		OR = {
			tag = U14
			AND = {
				tag = F78
				was_tag = U14
			}
		}
	}
	has_country_shield = yes

	U14_back_to_ourdia = {
		icon = mission_assemble_an_army
		required_missions = { U14_vilify_our_rivals
		}
		position = 2

		provinces_to_highlight = {
			OR = {
				AND = {
					owned_by = U16
					owner = {
						NOT = {
							OR = {
								has_opinion_modifier = { 
									who = ROOT 
									modifier = scornfully_insulted 
								}
								has_opinion_modifier = { 
									who = ROOT 
									modifier = insulted 
								}
							}	
						}
					}
				}
				province_id = 1928
			}	
		}

		trigger = {
			U16 = {
				OR = {
					has_opinion_modifier = { 
						who = ROOT 
						modifier = insulted 
					}
					has_opinion_modifier = { 
						who = ROOT 
						modifier = scornfully_insulted 
					}
				}
			}
			1298 = { #Gulf of Ourd
				AND = {
					light_ships_in_province = 3
					light_ships_in_province = ROOT
				}	
			}
		}

		effect = {
			510 = { add_permanent_claim = ROOT }
			513 = {	add_permanent_claim = ROOT }
			512 = {	add_permanent_claim = ROOT }
			add_country_modifier = {
				name = U14_guess_whos_back
				duration = 3650
			}
		}
	}

	U14_siege_weapons = {
		icon = mission_expand_textile_industry
		required_missions = { U14_back_to_ourdia U14_green_privateers }
		position = 3

		trigger = {
			treasury = 30
			OR = {
				
				any_known_country = {
					custom_trigger_tooltip = {
						tooltip = U14_siege_weapons.tt
						OR  = {
							capital_scope = { region = bahar_region }
							capital_scope = { region = ourdia_region }
						}
					}
					mil_tech = 7
				}
				mil_tech = 7
			}
			num_ships_privateering = 20
		}

		effect = {
            add_mil_power = 100
				527 = {
					add_unit_construction = {
    						type = large_cast_bronze_mortar
    						amount = 1
    						speed = 1
    						cost = 1
					}
				}
			if = {
                limit = {
                    NOT = { mil_tech = 7 }
                }
				
                add_country_modifier = {
					name = U14_artillery_inspiration
					duration = 365
				}
				
			}
		}
	}

	U14_reenact_the_siege = {
		icon = mission_cannons_firing
		required_missions = { U14_siege_weapons
		}
		position = 4

		provinces_to_highlight = {
			AND = {
				province_id = 510
				OR = {
					has_fort_building_trigger = no
					NOT = { has_province_modifier = castanorian_citadel }
					owned_by = ROOT
					NOT = { artillery_in_province = 5 }
					is_core = ROOT
				}	
			}
		}

		trigger = {
			510 = {
				owned_by = ROOT
				is_core = ROOT
				artillery_in_province = 5
				has_province_modifier = castanorian_citadel
			}
		}

		effect = {
			country_event = { id = exodus_goblin_flavour.17 }
		}
	}

	U14_bane_of_forts = {
		icon = mission_burning_castle
		required_missions = { U14_reenact_the_siege
		}
		position = 5

		provinces_to_highlight = {
			OR = {
				AND = {
					OR = {
						province_id = 510
						province_id = 526
						province_id = 522
					}
					OR = {
						has_fort_building_trigger = no
						NOT = {owned_by = ROOT}
					}
				}	
				owner = {
					AND = {
						is_enemy = U14
						num_of_artillery = ROOT
					}		
				}
				AND = {
					owned_by = ROOT
					OR = { 
						trade_goods = copper
						trade_goods = iron
					}
					NOT = {base_production = 7}
				}
			}
			
		}

		trigger = {
			510 = {
				owned_by = ROOT
				has_fort_building_trigger = yes
			}
			526 = {
				owned_by = ROOT
				has_fort_building_trigger = yes
			}
			522 = {
				owned_by = ROOT
				has_fort_building_trigger = yes
			}
			num_of_artillery = 10
			all_rival_country = {
				NOT = { num_of_artillery = ROOT }
			}
			all_owned_province = {
				OR = {
					AND = {
						NOT = { trade_goods = copper }
						NOT = { trade_goods = iron }
					}
					base_production = 7	
				}	
			}
		}

		effect = {
			add_country_modifier = {
				name = U14_bane_of_forts
				duration = -1
			}
		}
	}
}

mountainhugger_5 = {
	slot = 5
	generic = no
	ai = yes
	potential = {
		OR = {
			tag = U14
			AND = {
				tag = F78
				was_tag = U14
			}
		}
	}
	has_country_shield = yes

	U14_finish_the_navy = {
		icon = a_worthy_navy
		required_missions = {
		}
		position = 1

		provinces_to_highlight = {
			AND = {
				owned_by = U11
				owner = {
					NOT = {
						has_spy_network_from = {
							who = ROOT
							value = 15
						}
					}	
				}
			}
			
		}

		trigger = {
			OR = {
				has_adopted_cult = zvaiko_udenzo_cult
				naval_reformer = 1
			}
			U11 = {
				OR = {
					has_spy_network_from = {
							who = ROOT
							value = 15
					}
					exists = no
				}
				
			}
		}

		effect = {
			if = {
				limit = {
					U11 = {
						has_spy_network_from = {
								who = ROOT
								value = 15
						}
					}
				}
				U11 = {
					add_spy_network_from = {
						who = U14
						value = -15
					}
				}
			}

			add_country_modifier = {
				name = U14_finishing_the_navy
				duration = 5475	
			}
			
		}
	}

	U14_green_privateers = {
		icon = mission_pirate_havens
		required_missions = { U14_finish_the_navy
		}
		position = 2

		trigger = {
			num_of_admirals = 1
			navy_size_percentage = 0.9
		}

		effect = {
			add_country_modifier = {
				name = U14_the_green_privateer
				duration = 14600
			}
		}
	}

	U14_gnollish_expertise = {
		icon = mission_shady_encounter
		required_missions = { U14_green_privateers
		}
		position = 3

		trigger = {
			treasury = 50
			OR = {
				any_owned_province = {
					culture_group = gnollish
				}
				any_known_country = {
					culture_group = gnollish
					has_opinion = { 
						who = ROOT
						value = 50 
					}
				}
			}
		}

		effect = {
			add_treasury = -50
			define_advisor = {
				type = naval_reformer
				name = "Grrxk Footsniffer"
				skill = 2
				culture = west_sandfang_gnoll
				religion = xhazobkult
				discount = yes
			}
			capital_scope = {
				add_gnollish_minority_size_effect = yes
			}
			medium_increase_of_gnollish_tolerance_effect = yes
		}
	}

	U14_the_glass_bid = {
		icon = imperial_navy
		required_missions = { U14_gnollish_expertise
		}
		position = 4

		provinces_to_highlight = {
			province_id = 582
		}

		trigger = {
			num_ships_privateering = 30
            OR = {
                owns = 582
                582 = {
                    owner = {
                        if = {
                            limit = {
                                is_vassal = yes
                            }
                            overlord = {
                                has_spy_network_from = {
                                    who = ROOT
                                    value = 30
                                }
                            }
                        } else = {
                            has_spy_network_from = {
                                who = ROOT
                                value = 30
                            }
                        }
                    }
                }
            }    
		}

		effect = {
			if = {
                limit = {
                    NOT = { owns = 582 }
                }
                country_event = { id = exodus_goblin_flavour.11 }
            } else = {
                582 = {
                    add_building_construction = {
                        building = shipyard
                        speed = 1
                        cost = 0
                    }
                }
            }
		}
	}

	U14_terror_of_divenhal = {
		icon = mission_establish_high_seas_navy
		required_missions = { U14_the_glass_bid
		}
		position = 5

		provinces_to_highlight = {
			OR = {
				province_id = 582
				province_id = 581
				province_id = 533
			}
		}

		trigger = {
			num_of_light_ship = 25
            num_ships_privateering = 25
            navy_tradition = 50
            582 = {
                owned_by = ROOT
				is_core = ROOT
                has_dock_building_trigger = yes
                has_shipyard_building_trigger = yes
            }
            581 = {
                owned_by = ROOT
				is_core = ROOT
                has_dock_building_trigger = yes
                has_shipyard_building_trigger = yes
            }
            533 = {
                owned_by = ROOT
				is_core = ROOT
                has_dock_building_trigger = yes
                has_shipyard_building_trigger = yes
            }
		}

		effect = {
			add_country_modifier = {
				name = U14_raiding
				duration = 18250
			}
		}
	}
}
