country_decisions = {
	mulen_build_hanging_city_foundation = {
		major = yes
		potential = {
			OR = {
                was_tag = F50
                tag = F50
            }
            has_country_modifier = harpy_administration
			has_country_flag = can_build_foundations
		}

		provinces_to_highlight = {
			has_province_modifier = harpy_roost
			NOT = {
				has_province_modifier = mulen_hanging_city_foundation
				is_a_hanging_city = yes
			}
			owned_by = ROOT
		}

		allow = {
			any_owned_province = {
				has_active_triggered_province_modifier = harpy_roost
				NOT = { has_province_modifier = mulen_hanging_city_foundation }
				NOT = { is_a_hanging_city = yes }
				NOT = { has_construction = building }
			}
			treasury = 500
			NOT = { has_country_flag = building_foundation }
		}

		effect = {
			random_owned_province = {
				limit = {
					has_active_triggered_province_modifier = harpy_roost
					NOT = {
						has_province_modifier = mulen_hanging_city_foundation
						is_a_hanging_city = yes
					}
					NOT = { has_construction = building }
				}
				add_building_construction = {
					building = hanging_city_foundation
					cost = 1
					speed = 1
				}
			}
		}
		ai_will_do = {
			factor = 1
		}
	}
}
