
namespace = flavour_mulen

#foundation to city
province_event = {
	id = flavour_mulen.1
	title = flavour_mulen.1.t
	desc = flavour_mulen.1.d
	picture = CITY_VIEW_eventPicture

	is_triggered_only = yes

	trigger = {
		owner = {
			OR = {
                was_tag = F50
                tag = F50
            }
            has_country_modifier = harpy_administration
			has_country_flag = mulen_hanging_cities
		}
		development = 25
		has_province_modifier = mulen_hanging_city_foundation
	}

	option = {
		name = flavour_mulen.1.a
		remove_province_modifier = mulen_hanging_city_foundation
		add_permanent_province_modifier = {
			name = mulen_hanging_city
			duration = -1
		}
	}
}

#city to specialization
province_event = {
	id = flavour_mulen.2
	title = flavour_mulen.2.t
	desc = flavour_mulen.2.d
	picture = GREAT_BUILDING_eventPicture

	is_triggered_only = yes

	trigger = {
		owner = {
			OR = {
                was_tag = F50
                tag = F50
            }
            has_country_modifier = harpy_administration
			has_country_flag = mulen_hanging_cities_specializations
		}
		development = 35
		has_province_modifier = mulen_hanging_city
	}

	option = {
		name = flavour_mulen.2.a
		trigger = {
			NOT = { province_id = 2908 } #Esamod
		}
		remove_province_modifier = mulen_hanging_city
		add_permanent_province_modifier = {
			name = mulen_hanging_city_baths
			duration = -1
		}
	}

	option = {
		name = flavour_mulen.2.b
		remove_province_modifier = mulen_hanging_city
		add_permanent_province_modifier = {
			name = mulen_hanging_city_gardens
			duration = -1
		}
	}

	option = {
		name = flavour_mulen.2.c
		trigger = {
			NOT = { province_id = 2908 } #Esamod
		}
		remove_province_modifier = mulen_hanging_city
		add_permanent_province_modifier = {
			name = mulen_hanging_city_libraries
			duration = -1
		}
	}
}

#goblin requests expedition
country_event = {
	id = flavour_mulen.3
	title = flavour_mulen.3.t
	desc = flavour_mulen.3.d
	picture = CAVE_eventPicture

	is_triggered_only = yes
	fire_only_once = yes

	trigger = {
		OR = {
			was_tag = F50
			tag = F50
		}
		2921 = { owned_by = ROOT } #Endenn
		ROOT = { NOT = { mission_completed = mulen_finding_our_miners } }
	}

	#send expedition
	option = {
		name = flavour_mulen.3.a
		goto = 2921
		add_treasury = -25
		add_manpower = -2.5
		country_event = {
			id = flavour_mulen.5
			days = 730
			random = 730
		}
	}

	#ask again later
	option = {
		name = flavour_mulen.3.b
		country_event = {
			id = flavour_mulen.4
			days = 730
			random = 730
		}
	}
}

#goblin asks again later
country_event = {
	id = flavour_mulen.4
	title = flavour_mulen.4.t
	desc = flavour_mulen.4.d
	picture = DIPLOMACY_eventPicture

	is_triggered_only = yes

	trigger = {
		OR = {
			was_tag = F50
			tag = F50
		}
		2921 = { owned_by = ROOT } #Endenn
		ROOT = { NOT = { mission_completed = mulen_finding_our_miners } }
	}

	#send expedition
	option = {
		name = flavour_mulen.4.a
		goto = 2921
		add_treasury = -25
		add_manpower = -2.5
		country_event = {
			id = flavour_mulen.5
			days = 730
			random = 730
		}
	}

	#ask again later recursive
	option = {
		name = flavour_mulen.4.b
		country_event = {
			id = flavour_mulen.4
			days = 730
			random = 730
		}
	}
}

#expedition returns
country_event = {
	id = flavour_mulen.5
	title = flavour_mulen.5.t
	desc = flavour_mulen.5.d
	picture = EXPLORERS_eventPicture

	is_triggered_only = yes
	fire_only_once = yes

	trigger = {
		OR = {
			was_tag = F50
			tag = F50
		}
	}

	option = {
		name = flavour_mulen.5.a
		goto = 2921
		anduz_area = { discover_country = ROOT }
		ambermine_alley_area = { discover_country = ROOT }
		earthseed_area = { discover_country = ROOT }
		H88 = { #Ambersniffer
			if = {
				limit = { exists = yes }
				capital_scope = { discover_country = ROOT }
			}
		}
		H92 = { #Poisoned Rock
			if = {
				limit = { exists = yes }
				capital_scope = { discover_country = ROOT }
			}
		}
		H93 = { #Dirtwater
			if = {
				limit = { exists = yes }
				capital_scope = { discover_country = ROOT }
			}
		}
		add_manpower = 1.5
	}
}

#fp expedition leaves
country_event = {
	id = flavour_mulen.6
	title = flavour_mulen.6.t
	desc = flavour_mulen.6.d
	picture = MILITARY_CAMP_eventPicture

	is_triggered_only = yes

	trigger = {
		OR = {
			was_tag = F50
			tag = F50
		}
	}

	option = {
		name = flavour_mulen.6.a
		add_treasury = -100
		add_manpower = -5
		hidden_effect = {
			country_event = {
				id = flavour_mulen.7
				days = 1825
				random = 1825
			}
		}
	}
}

#fp expedition returns
country_event = {
	id = flavour_mulen.7
	title = flavour_mulen.7.t
	desc = flavour_mulen.7.d
	picture = COURT_eventPicture

	is_triggered_only = yes

	trigger = {
		OR = {
			was_tag = F50
			tag = F50
		}
	}

	option = {
		name = flavour_mulen.7.a
		goto = 2922
		forbidden_lands_superregion = {
			discover_country = ROOT
		}
		1784 = { #east fp wasteland
			discover_country = ROOT
		}
		6505 = { #west fp wasteland
			discover_country = ROOT
		}
		2194 = { #east mountains wasteland
			discover_country = ROOT
		}
		6198 = { #north wasteland
			discover_country = ROOT
		}
		kodarve_sea_area = {
			discover_country = ROOT
		}
		yukelqur_sea_area = {
			discover_country = ROOT
		}
		zernuuk_sea_area = {
			discover_country = ROOT
		}
		outer_sea_area = {
			discover_country = ROOT
		}
		every_known_country = {
			limit = {
			OR = {
				has_country_modifier = lake_federation_member
				has_reform = united_federation
			}
			}
			2921 = {
			discover_country = PREV
			}
		}
		set_country_flag = fp_expedition_returned
		add_manpower = 2.5
	}
}

#transfer trade ultimatum
country_event = {
	id = flavour_mulen.8
	title = flavour_mulen.8.t
	desc = flavour_mulen.8.d
	picture = COURT_eventPicture

	is_triggered_only = yes

	trigger = {

	}

	#transfer trade
	option = {
		name = flavour_mulen.8.a
		ai_chance = {
			factor = 50
			modifier = {
				factor = 0
				OR = {
					is_rival = FROM
					is_enemy = FROM
				}
			}
			modifier = {
				factor = 3
				FROM = {
					military_strength = {
						who = PREV
						value = 3.0
					}
				}
			}
			modifier = {
				factor = 2
				FROM = {
					military_strength = {
						who = PREV
						value = 2.0
					}
				}
			}
			modifier = {
				factor = 2
				has_opinion = {
					who = FROM
					value = 100
				}
			}
			modifier = {
				factor = 1.5
				has_opinion = {
					who = FROM
					value = 50
				}
			}
			modifier = {
				factor = 0.5
				military_strength = {
					who = FROM
					value = 1.0
				}
			}
			modifier = {
				factor = 0
				military_strength = {
					who = FROM
					value = 2.0
				}
			}
		}
		FROM = {
			country_event = {
			id = flavour_mulen.9
			days = 30
			}
		}
	}

	#refuse, generate cb
	option = {
		name = flavour_mulen.8.b
		ai_chance = {
			factor = 50
			modifier = {
				factor = 0
				OR = {
					alliance_with = FROM
				}
			}
			modifier = {
				factor = 0
				FROM = {
					military_strength = {
					who = PREV
					value = 3.0
					}
				}
			}
			modifier = {
				factor = 0.5
				FROM = {
					military_strength = {
					who = PREV
					value = 2.0
					}
				}
			}
			modifier = {
				factor = 0.5
				has_opinion = {
					who = FROM
					value = -25
				}
			}
			modifier = {
				factor = 0.75
				NOT = {
					has_opinion = {
					who = FROM
					value = 0
					}
				}
			}
			modifier = {
				factor = 2
				military_strength = {
					who = FROM
					value = 2.0
				}
			}
			modifier = {
				factor = 3
				military_strength = {
					who = FROM
					value = 3.0
				}
			}
		}
		FROM = {
			country_event = {
			id = flavour_mulen.10
			days = 30
			}
		}
	}
}

#transfer trade ultimatum transfers
country_event = {
	id = flavour_mulen.9
	title = flavour_mulen.9.t
	desc = flavour_mulen.9.d
	picture = CONQUEST_eventPicture

	is_triggered_only = yes

	option = {
		name = flavour_mulen.9.a
		FROM = {
			every_owned_province = {
				limit = {
					province_group = golden_highway_bulwar_proper
				}
				if = {
					limit = {
						province_has_center_of_trade_of_level = 3
					}
					add_trade_modifier = {
						who = FROM
						duration = 5475
						power = -20
						key = "Golden Highway Transfer"
					}
					add_trade_modifier = {
						who = ROOT
						duration = 5475
						power = 20
						key = "Golden Highway Access"
					}
				}
				else_if = {
					limit = {
						province_has_center_of_trade_of_level = 2
					}
					add_trade_modifier = {
						who = FROM
						duration = 5475
						power = -15
						key = "Golden Highway Transfer"
					}
					add_trade_modifier = {
						who = ROOT
						duration = 5475
						power = 15
						key = "Golden Highway Access"
					}
				}
				else_if = {
					limit = {
						province_has_center_of_trade_of_level = 1
					}
					add_trade_modifier = {
						who = FROM
						duration = 5475
						power = -10
						key = "Golden Highway Transfer"
					}
					add_trade_modifier = {
						who = ROOT
						duration = 5475
						power = 10
						key = "Golden Highway Access"
					}
				}
				else = {
					add_trade_modifier = {
						who = FROM
						duration = 5475
						power = -5
						key = "Golden Highway Transfer"
					}
					add_trade_modifier = {
						who = ROOT
						duration = 5475
						power = 5
						key = "Golden Highway Access"
					}
				}
			}
			every_subject_country = {
				every_owned_province = {
					limit = {
						province_group = golden_highway_bulwar_proper
					}
					if = {
						limit = {
							province_has_center_of_trade_of_level = 3
						}
						add_trade_modifier = {
							who = FROM
							duration = 5475
							power = -20
							key = "Golden Highway Transfer"
						}
						add_trade_modifier = {
							who = ROOT
							duration = 5475
							power = 20
							key = "Golden Highway Access"
						}
					}
					else_if = {
						limit = {
							province_has_center_of_trade_of_level = 2
						}
						add_trade_modifier = {
							who = FROM
							duration = 5475
							power = -15
							key = "Golden Highway Transfer"
						}
						add_trade_modifier = {
							who = ROOT
							duration = 5475
							power = 15
							key = "Golden Highway Access"
						}
					}
					else_if = {
						limit = {
							province_has_center_of_trade_of_level = 1
						}
						add_trade_modifier = {
							who = FROM
							duration = 5475
							power = -10
							key = "Golden Highway Transfer"
						}
						add_trade_modifier = {
							who = ROOT
							duration = 5475
							power = 10
							key = "Golden Highway Access"
						}
					}
					else = {
						add_trade_modifier = {
							who = FROM
							duration = 5475
							power = -5
							key = "Golden Highway Transfer"
						}
						add_trade_modifier = {
							who = ROOT
							duration = 5475
							power = 5
							key = "Golden Highway Access"
						}
					}
				}
			}
		}
	}
}

#transfer trade ultimatum rejects
country_event = {
	id = flavour_mulen.10
	title = flavour_mulen.10.t
	desc = flavour_mulen.10.d
	picture = DEBATE_REPUBLICAN_eventPicture

	is_triggered_only = yes

	option = {
		name = flavour_mulen.10.a
		add_casus_belli = {
			target = FROM
			type = cb_trade_war_triggered
			months = 120
		}
	}
}

#Merchant Matriarch government events

#matriarchs reign in queen
country_event = {
	id = flavour_mulen.11
	title = flavour_mulen.11.t
	desc = flavour_mulen.11.d
	picture = DIPLOMACY_eventPicture

	is_triggered_only = yes

	trigger = {
		OR = {
			was_tag = F50
			tag = F50
		}
		has_country_modifier = harpy_administration
		has_reform = harpy_matriarchy_reform
		has_reform = merchant_matriarchs_reform
		has_country_flag = mulen_constitution
		statists_vs_orangists = 0.5
	}

	option = {
		name = flavour_mulen.11.a
		change_statists_vs_orangists = -0.33
		add_prestige = -5
	}
}

#queen reigns in matriarchs
country_event = {
	id = flavour_mulen.12
	title = flavour_mulen.12.t
	desc = flavour_mulen.12.d
	picture = DIPLOMACY_eventPicture

	is_triggered_only = yes

	trigger = {
		OR = {
			was_tag = F50
			tag = F50
		}
		has_country_modifier = harpy_administration
		has_reform = harpy_matriarchy_reform
		has_reform = merchant_matriarchs_reform
		has_country_flag = mulen_constitution
		NOT = { statists_vs_orangists = -0.5 }
	}

	option = {
		name = flavour_mulen.12.a
		change_statists_vs_orangists = 0.33
		add_prestige = -5
	}
}

#matriarchs evade taxes
country_event = {
	id = flavour_mulen.13
	title = flavour_mulen.13.t
	desc = flavour_mulen.13.d
	picture = BANKRUPTCY_eventPicture

	is_triggered_only = yes

	trigger = {
		OR = {
			was_tag = F50
			tag = F50
		}
		has_country_modifier = harpy_administration
		has_reform = harpy_matriarchy_reform
		has_reform = merchant_matriarchs_reform
		NOT = { statists_vs_orangists = -0.5 }
	}

	option = {
		name = flavour_mulen.13.a
		add_corruption = 2
	}
}

#matriarchs print money
country_event = {
	id = flavour_mulen.14
	title = flavour_mulen.14.t
	desc = flavour_mulen.14.d
	picture = CORRUPTION_eventPicture

	is_triggered_only = yes

	trigger = {
		OR = {
			was_tag = F50
			tag = F50
		}
		has_country_modifier = harpy_administration
		has_reform = harpy_matriarchy_reform
		has_reform = merchant_matriarchs_reform
		NOT = { statists_vs_orangists = -0.5 }
	}

	option = {
		name = flavour_mulen.14.a
		add_inflation = 2
	}
}

#matriarchs self govern
country_event = {
	id = flavour_mulen.15
	title = flavour_mulen.15.t
	desc = flavour_mulen.15.d
	picture = DEBATE_REPUBLICAN_eventPicture

	is_triggered_only = yes

	trigger = {
		OR = {
			was_tag = F50
			tag = F50
		}
		has_country_modifier = harpy_administration
		has_reform = harpy_matriarchy_reform
		has_reform = merchant_matriarchs_reform
		NOT = { statists_vs_orangists = -0.5 }
	}

	option = {
		name = flavour_mulen.15.a
		every_owned_province = {
			limit = {
				has_province_modifier = harpy_roost
			}
			add_local_autonomy = 15
		}
	}
}

#matriarchs smear reputation
country_event = {
	id = flavour_mulen.16
	title = flavour_mulen.16.t
	desc = flavour_mulen.16.d
	picture = MERCHANTS_TALKING_eventPicture

	is_triggered_only = yes

	trigger = {
		OR = {
			was_tag = F50
			tag = F50
		}
		has_country_modifier = harpy_administration
		has_reform = harpy_matriarchy_reform
		has_reform = merchant_matriarchs_reform
		NOT = { statists_vs_orangists = -0.5 }
	}

	option = {
		name = flavour_mulen.16.a
		add_legitimacy = -10
		add_prestige = -10
	}
}

#matriarch bad economic policy
country_event = {
	id = flavour_mulen.17
	title = flavour_mulen.17.t
	desc = flavour_mulen.17.d
	picture = ECONOMY_eventPicture

	is_triggered_only = yes

	trigger = {
		OR = {
			was_tag = F50
			tag = F50
		}
		has_country_modifier = harpy_administration
		has_reform = harpy_matriarchy_reform
		has_reform = merchant_matriarchs_reform
		statists_vs_orangists = 0.5
	}

	option = {
		name = flavour_mulen.17.a
		add_country_modifier = {
			name = mulen_bad_economics
			duration = 3650
		}
	}
}

#matriarch bad diplomatic mission
country_event = {
	id = flavour_mulen.18
	title = flavour_mulen.18.t
	desc = flavour_mulen.18.d
	picture = ACCUSATION_eventPicture

	is_triggered_only = yes

	trigger = {
		OR = {
			was_tag = F50
			tag = F50
		}
		has_country_modifier = harpy_administration
		has_reform = harpy_matriarchy_reform
		has_reform = merchant_matriarchs_reform
		statists_vs_orangists = 0.5
	}

	immediate = {
		random_neighbor_country = {
			save_event_target_as = mulen_insult_target
		}
	}

	option = {
		name = flavour_mulen.18.a
		event_target:mulen_insult_target = {
			add_casus_belli = {
				target = ROOT
				type = cb_insult
				months = 12
			}
			add_opinion = {
				who = ROOT
				modifier = insulted
			}
		}
	}
}

#matriarch uses outdated military
country_event = {
	id = flavour_mulen.19
	title = flavour_mulen.19.t
	desc = flavour_mulen.19.d
	picture = MILITARY_CAMP_eventPicture

	is_triggered_only = yes

	trigger = {
		OR = {
			was_tag = F50
			tag = F50
		}
		has_country_modifier = harpy_administration
		has_reform = harpy_matriarchy_reform
		has_reform = merchant_matriarchs_reform
		statists_vs_orangists = 0.5
	}

	option = {
		name = flavour_mulen.19.a
		add_country_modifier = {
			name = mulen_outdated_military
			duration = 3650
		}
	}
}

#matriarch restricts merchant matriarchs
country_event = {
	id = flavour_mulen.20
	title = flavour_mulen.20.t
	desc = flavour_mulen.20.d
	picture = GOOD_WITH_MONARCH_eventPicture

	is_triggered_only = yes

	trigger = {
		OR = {
			was_tag = F50
			tag = F50
		}
		has_country_modifier = harpy_administration
		has_reform = harpy_matriarchy_reform
		has_reform = merchant_matriarchs_reform
		statists_vs_orangists = 0.5
	}

	option = {
		name = flavour_mulen.20.a
		add_country_modifier = {
			name = mulen_restricted_merchants
			duration = 3650
		}
	}
}

#inroads in a country
country_event = {
	id = flavour_mulen.21
	title = flavour_mulen.21.t
	desc = flavour_mulen.21.d
	picture = TRADEGOODS_eventPicture

	is_triggered_only = yes

	trigger = {
		OR = {
			was_tag = F50
			tag = F50
		}
		has_country_modifier = harpy_administration
		has_reform = harpy_matriarchy_reform
		has_reform = merchant_matriarchs_reform
	}

	immediate = {
		hidden_effect = {
			random_neighbor_country = {
				save_event_target_as = mulen_relations_target
			}
		}
	}

	option = {
		name = flavour_mulen.21.a
		add_country_modifier = {
			name = mulen_good_trade
			duration = 3650
		}
		change_statists_vs_orangists = -0.33
	}

	option = {
		name = flavour_mulen.21.b
		event_target:mulen_relations_target = {
			add_opinion = {
				who = ROOT
				modifier = opinion_good_relations
			}
		}
		change_statists_vs_orangists = 0.33
	}
}

#merchant matriarchs donation to the state
country_event = {
	id = flavour_mulen.22
	title = flavour_mulen.22.t
	desc = flavour_mulen.22.d
	picture = CORRUPTION_eventPicture

	is_triggered_only = yes

	trigger = {
		OR = {
			was_tag = F50
			tag = F50
		}
		has_country_modifier = harpy_administration
		has_reform = harpy_matriarchy_reform
		has_reform = merchant_matriarchs_reform
	}

	option = {
		name = flavour_mulen.22.a
		add_years_of_income = 0.25
		change_statists_vs_orangists = -0.33
	}
}

#queen designates focus city
country_event = {
	id = flavour_mulen.23
	title = flavour_mulen.23.t
	desc = flavour_mulen.23.d
	picture = CITY_DEVELOPMENT_eventPicture

	is_triggered_only = yes

	trigger = {
		OR = {
			was_tag = F50
			tag = F50
		}
		has_country_modifier = harpy_administration
		has_reform = harpy_matriarchy_reform
		has_reform = merchant_matriarchs_reform
	}

	immediate = {
		random_owned_province = {
			limit = {
				OR = {
					province_has_center_of_trade_of_level = 1
					has_active_triggered_province_modifier = harpy_roost
				}
			}
			save_event_target_as = mulen_focus_city_target
		}
	}

	option = {
		name = flavour_mulen.23.a
		event_target:mulen_focus_city_target = {
			add_province_modifier = {
				name = mulen_focus_city
				duration = 5475
			}
		}
		change_statists_vs_orangists = 0.33
	}
}

#fires from annexing VG
country_event = {
	id = flavour_mulen.24
	title = flavour_mulen.24.t
	desc = flavour_mulen.24.d
	picture = ECONOMY_eventPicture

	is_triggered_only = yes

	trigger = {
		OR = {
			was_tag = F50
			tag = F50
		}
		has_country_modifier = mulen_vassal_payment
	}

	option = {
		name = flavour_mulen.24.a
		remove_country_modifier = mulen_vassal_payment
	}
}

country_event = {
	id = flavour_mulen.26
	title = flavour_mulen.26.t
	desc = flavour_mulen.26.d
	picture = UNIVERSITY_eventPicture

	is_triggered_only = yes

	trigger = {
		OR = {
			tag = F50
			was_tag = F50
		}
		has_country_flag = mulen_hanging_cities
		any_owned_province = {
			is_a_hanging_city = yes
			OR = {
				AND = {
					NOT = { renaissance = 100 }
					owner = {
						any_owned_province = {
							is_a_hanging_city = yes
							renaissance = 100
						}
					}
				}
				AND = {
					NOT = { new_world_i = 100 }
						owner = {
						any_owned_province = {
							is_a_hanging_city = yes
							new_world_i = 100
						}
					}
				}
				AND = {
					NOT = { printing_press = 100 }
						owner = {
						any_owned_province = {
							is_a_hanging_city = yes
							printing_press = 100
						}
					}
				}
				AND = {
					NOT = { global_trade = 100 }
						owner = {
						any_owned_province = {
							is_a_hanging_city = yes
							global_trade = 100
						}
					}
				}
				AND = {
					NOT = { manufactories = 100 }
						owner = {
						any_owned_province = {
							is_a_hanging_city = yes
							manufactories = 100
						}
					}
				}
				AND = {
					NOT = { enlightenment = 100 }
						owner = {
						any_owned_province = {
							is_a_hanging_city = yes
							enlightenment = 100
						}
					}
				}
				AND = {
					NOT = { industrialization = 100 }
						owner = {
						any_owned_province = {
							is_a_hanging_city = yes
							industrialization = 100
						}
					}
				}
			}
		}
	}

	option = {
		name = flavour_mulen.26.a
		ai_chance = { factor = 1 }

		every_owned_province = {
			limit = {
				is_a_hanging_city = yes
				OR = {
					AND = {
						renaissance = 100
						owner = {
							any_owned_province = {
								is_a_hanging_city = yes
								NOT = { renaissance = 100 }
							}
						}
					}
					AND = {
						new_world_i = 100
						owner = {
							any_owned_province = {
								is_a_hanging_city = yes
								NOT = { new_world_i = 100 }
							}
						}
					}
					AND = {
						printing_press = 100
						owner = {
							any_owned_province = {
								is_a_hanging_city = yes
								NOT = { printing_press = 100 }
							}
						}
					}
					AND = {
						global_trade = 100
						owner = {
							any_owned_province = {
								is_a_hanging_city = yes
								NOT = { global_trade = 100 }
							}
						}
					}
					AND = {
						manufactories = 100
						owner = {
							any_owned_province = {
								is_a_hanging_city = yes
								NOT = { manufactories = 100 }
							}
						}
					}
					AND = {
						enlightenment = 100
						owner = {
							any_owned_province = {
								is_a_hanging_city = yes
								NOT = { enlightenment = 100 }
							}
						}
					}
					AND = {
						industrialization = 100
						owner = {
							any_owned_province = {
								is_a_hanging_city = yes
								NOT = { industrialization = 100 }
							}
						}
					}
				}
			}
			set_province_flag = has_institution_flag
		}
		every_owned_province = {
			limit = {
				has_province_flag = has_institution_flag
			}
			if = {
				limit = {
					renaissance = 100
					owner = {
						any_owned_province = {
							is_a_hanging_city = yes
							NOT = { renaissance = 100 }
						}
					}
				}
				owner = {
					random_owned_province = {
						limit = {
							is_a_hanging_city = yes
							NOT = { renaissance = 100 }
						}
						add_institution_embracement = {
							which = renaissance
							value = 100
						}
					}
				}
			}
			else_if = {
				limit = {
					new_world_i = 100
					owner = {
						any_owned_province = {
							is_a_hanging_city = yes
							NOT = { new_world_i = 100 }
						}
					}
				}
				owner = {
					random_owned_province = {
						limit = {
							is_a_hanging_city = yes
							NOT = { new_world_i = 100 }
						}
						add_institution_embracement = {
							which = new_world_i
							value = 100
						}
					}
				}
			}
			else_if = {
				limit = {
					printing_press = 100
					owner = {
						any_owned_province = {
							is_a_hanging_city = yes
							NOT = { printing_press = 100 }
						}
					}
				}
				owner = {
					random_owned_province = {
						limit = {
							is_a_hanging_city = yes
							NOT = { printing_press = 100 }
						}
						add_institution_embracement = {
							which = printing_press
							value = 100
						}
					}
				}
			}
			else_if = {
				limit = {
					global_trade = 100
					owner = {
						any_owned_province = {
							is_a_hanging_city = yes
							NOT = { global_trade = 100 }
						}
					}
				}
				owner = {
					random_owned_province = {
						limit = {
							is_a_hanging_city = yes
							NOT = { global_trade = 100 }
						}
						add_institution_embracement = {
							which = global_trade
							value = 100
						}
					}
				}
			}
			else_if = {
				limit = {
					manufactories = 100
					owner = {
						any_owned_province = {
							is_a_hanging_city = yes
							NOT = { manufactories = 100 }
						}
					}
				}
				owner = {
					random_owned_province = {
						limit = {
							is_a_hanging_city = yes
							NOT = { manufactories = 100 }
						}
						add_institution_embracement = {
							which = manufactories
							value = 100
						}
					}
				}
			}
			else_if = {
				limit = {
					enlightenment = 100
					owner = {
						any_owned_province = {
							is_a_hanging_city = yes
							NOT = { enlightenment = 100 }
						}
					}
				}
				owner = {
					random_owned_province = {
						limit = {
							is_a_hanging_city = yes
							NOT = { enlightenment = 100 }
						}
						add_institution_embracement = {
							which = enlightenment
							value = 100
						}
					}
				}
			}
			else_if = {
				limit = {
					industrialization = 100
					owner = {
						any_owned_province = {
							is_a_hanging_city = yes
							NOT = { industrialization = 100 }
						}
					}
				}
				owner = {
					random_owned_province = {
						limit = {
							is_a_hanging_city = yes
							NOT = { industrialization = 100 }
						}
						add_institution_embracement = {
							which = industrialization
							value = 100
						}
					}
				}
			}
		}
		every_owned_province = {
			clr_province_flag = has_institution_flag
		}
	}
}

#books_from_aqatbar
country_event = {
	id = flavour_mulen.27
	title = flavour_mulen.27.t
	desc = {
		trigger = {
			536 = { #Aqatbar
				owner = {
					has_opinion = {
						who = ROOT
						value = 100
					}
				}
			}
		}
		desc = flavour_mulen.27.da
	}
	desc = {
		trigger = {
			536 = {
				controlled_by = ROOT
			}
		}
		desc = flavour_mulen.27.db
	}
	picture = BIG_BOOK_eventPicture

	mean_time_to_happen = {
		days = 30
	}

	fire_only_once = yes

	trigger = {
		OR = {
			was_tag = F50
			tag = F50
		}
		mission_completed = mulen_mulen_rouge
		NOT = { has_country_flag = books_from_aqatbar }
		536 = {
			OR = {
				controlled_by = ROOT
				owner = {
					has_opinion = {
						who = ROOT
						value = 100
					}
				}
			}
		}
	}

	immediate = {
		set_country_flag = books_from_aqatbar
	}

	option = {
		name = flavour_mulen.27.a
		trigger = {
			536 = {
				owner = {
					has_opinion = {
						who = ROOT
						value = 100
					}
				}
			}
		}
		add_treasury = -300
		536 = {
			owner = {
				add_treasury = 300
			}
		}
		custom_tooltip = received_books_aqatbar_tt
	}

	option = {
		name = flavour_mulen.27.b
		trigger = {
			536 = {
				controlled_by = ROOT
			}
		}
		536 = {
			add_devastation = 20
		}
		custom_tooltip = received_books_aqatbar_tt
	}
}

#books_from_dhenijansar
country_event = {
	id = flavour_mulen.28
	title = flavour_mulen.28.t
	desc = {
		trigger = {
			4411 = { #Dhenijansar
				owner = {
					has_opinion = {
						who = ROOT
						value = 100
					}
				}
			}
		}
		desc = flavour_mulen.28.da
	}
	desc = {
		trigger = {
			4411 = {
				controlled_by = ROOT
			}
		}
		desc = flavour_mulen.28.db
	}
	picture = BIG_BOOK_eventPicture

	mean_time_to_happen = {
		days = 30
	}

	fire_only_once = yes

	trigger = {
		OR = {
			was_tag = F50
			tag = F50
		}
		mission_completed = mulen_mulen_rouge
		NOT = { has_country_flag = books_from_dhenijansar }
		4411 = {
			OR = {
				controlled_by = ROOT
				owner = {
					has_opinion = {
						who = ROOT
						value = 100
					}
				}
			}
		}
	}

	immediate = {
		set_country_flag = books_from_dhenijansar
	}

	option = {
		name = flavour_mulen.28.a
		trigger = {
				4411 = {
				owner = {
					has_opinion = {
						who = ROOT
						value = 100
					}
				}
			}
		}
		add_treasury = -300
		4411 = {
			owner = {
				add_treasury = 300
			}
		}
		custom_tooltip = received_books_dhenijansar_tt
	}

	option = {
		name = flavour_mulen.28.b
		trigger = {
			4411 = {
				controlled_by = ROOT
			}
		}
		4411 = {
			add_devastation = 20
		}
		custom_tooltip = received_books_dhenijansar_tt
	}
}

#books_from_ghundagar
country_event = {
	id = flavour_mulen.29
	title = flavour_mulen.29.t
	desc = {
		trigger = {
			4417 = { #Ghundagar
				owner = {
					has_opinion = {
						who = ROOT
						value = 100
					}
				}
			}
		}
		desc = flavour_mulen.29.da
	}
	desc = {
		trigger = {
			4417 = {
				controlled_by = ROOT
			}
		}
		desc = flavour_mulen.29.db
	}
	picture = BIG_BOOK_eventPicture

	mean_time_to_happen = {
		days = 30
	}

	fire_only_once = yes

	trigger = {
		OR = {
			was_tag = F50
			tag = F50
		}
		mission_completed = mulen_mulen_rouge
		NOT = { has_country_flag = books_from_ghundagar }
		4417 = {
			OR = {
			controlled_by = ROOT
				owner = {
					has_opinion = {
						who = ROOT
						value = 100
					}
				}
			}
		}
	}

	immediate = {
		set_country_flag = books_from_ghundagar
	}

	option = {
		name = flavour_mulen.29.a
		trigger = {
			4417 = {
				owner = {
					has_opinion = {
						who = ROOT
						value = 100
					}
				}
			}
		}
		add_treasury = -300
		4417 = {
			owner = {
				add_treasury = 300
			}
		}
		custom_tooltip = received_books_ghundagar_tt
	}

	option = {
		name = flavour_mulen.29.b
		trigger = {
			4417 = {
				controlled_by = ROOT
			}
		}
		4417 = {
			add_devastation = 20
		}
		custom_tooltip = received_books_ghundagar_tt
	}
}

#writing constitution
country_event = {
	id = flavour_mulen.30
	title = flavour_mulen.30.t
	desc = flavour_mulen.30.d
	picture = DIPLOMACY_SIGNING_eventPicture

	is_triggered_only = yes

	trigger = {
		OR = {
			was_tag = F50
			tag = F50
		}
		has_country_modifier = harpy_administration
	}

	option = {
		name = flavour_mulen.30.a
		set_country_flag = mulen_constitution
		custom_tooltip = mulen_create_constitution_tt
	}
}

#peacock and the sparrow
country_event = {
	id = flavour_mulen.31
	title = flavour_mulen.31.t
	desc = flavour_mulen.31.d
	picture = ELEPHANTS_AND_PEASANTS_eventPicture

	is_triggered_only = yes

	trigger = {
		OR = {
			was_tag = F50
			tag = F50
		}
		has_country_modifier = harpy_administration
	}

	option = {
		name = flavour_mulen.31.a
		set_country_flag = merchant_matriarchs_enabled
		add_government_reform = merchant_matriarchs_reform
	}
}

#land of the skies
country_event = {
	id = flavour_mulen.32
	title = flavour_mulen.32.t
	desc = flavour_mulen.32.d
	picture = SURAKES_SUN_GARDEN_eventPicture

	is_triggered_only = yes

	trigger = {
		OR = {
			was_tag = F50
			tag = F50
		}
		has_country_modifier = harpy_administration
	}

	option = {
		name = flavour_mulen.32.a
		country_event = {
			id = flavour_mulen.33
			days = 30
		}
	}
}

#private conversation
country_event = {
	id = flavour_mulen.33
	title = flavour_mulen.33.t
	desc = flavour_mulen.33.d
	picture = BIG_STAR_IN_SKY_eventPicture

	is_triggered_only = yes

	trigger = {
		OR = {
			was_tag = F50
			tag = F50
		}
		has_country_modifier = harpy_administration
	}

	option = {
		name = flavour_mulen.33.a
		add_country_modifier = {
			name = mulen_land_of_skies
			duration = -1
		}
	}
}
